Title,Album,Artist,Duration (ms),Rating,Play Count,Removed,Playlist Index
"Innocent","The Moon Rang Like a Bell","Hundred Waters","279000","0","142","","1"
"On Your Side","Passive Aggressive: Singles 2002-2010","The Radio Dept.","195000","0","110","","0"
"Rocket Man (I Think It&#39;s Going To Be A Long Long Time)","Honky Chateau","Elton John","281000","0","37","","2"
"Rocket Man (I Think It&#39;s Going To Be A Long Long Time)","Honky Chateau","Elton John","281000","0","37","","2"
