"Album","Artist","Bit Rate","Date Added","Date Modified","File Folder Count","Genre","Kind","Library Folder Count","Location","Name","Persistent ID","Play Count","Play Date","Play Date UTC","Sample Rate","Size","Total Time","Track ID","Track Number","Track Type","Year","Album Artist","Grouping","Sort Album","Comments","Composer","Sort Name","Track Count","Artwork Count","Disc Count","Disc Number","Purchased","Release Date","Sort Album Artist","Sort Artist","Explicit","Compilation"
"Hissing Fauna, Are You the Destroyer?","Of Montreal",244,"2013-12-19T01:28:27Z","2007-08-11T04:13:32Z",5,"Alternative","MPEG audio file",1,"file://localhost/C:/Users/Administrator/Music/iTunes/iTunes%20Media/Music/Of%20Montreal/Hissing%20Fauna,%20Are%20You%20the%20Destroyer_/01%20Suffer%20For%20Fashion.mp3","Suffer For Fashion","43DE0CAF3B3453A9",114,3486822960,"2014-06-28T21:56:00Z",44100,5451776,178520,21597,1,"File",2007,,,,,,,,,,,,,,,,
"Hissing Fauna, Are You the Destroyer?","Of Montreal",239,"2013-12-19T01:28:27Z","2007-08-11T04:13:38Z",5,"Alternative","MPEG audio file",1,"file://localhost/C:/Users/Administrator/Music/iTunes/iTunes%20Media/Music/Of%20Montreal/Hissing%20Fauna,%20Are%20You%20the%20Destroyer_/11%20She's%20a%20Rejector.mp3","She's a Rejector","6EE3C784C061DB55",26,3485866314,"2014-06-17T20:11:54Z",44100,7288832,242991,21617,11,"File",2007,,,,,,,,,,,,,,,,
"Hissing Fauna, Are You the Destroyer?","Of Montreal",226,"2013-12-19T01:28:27Z","2007-08-11T04:13:34Z",5,"Alternative","MPEG audio file",1,"file://localhost/C:/Users/Administrator/Music/iTunes/iTunes%20Media/Music/Of%20Montreal/Hissing%20Fauna,%20Are%20You%20the%20Destroyer_/02%20Sink%20The%20Seine.mp3","Sink The Seine","F8F2D1AEFDD69269",16,3486822778,"2014-06-28T21:52:58Z",44100,1822720,64235,21599,2,"File",2007,,,,,,,,,,,,,,,,
"Hissing Fauna, Are You the Destroyer?","Of Montreal",255,"2013-12-19T01:28:27Z","2007-08-11T04:13:34Z",5,"Alternative","MPEG audio file",1,"file://localhost/C:/Users/Administrator/Music/iTunes/iTunes%20Media/Music/Of%20Montreal/Hissing%20Fauna,%20Are%20You%20the%20Destroyer_/03%20Cato%20as%20a%20Pun.mp3","Cato as a Pun","D15B93CFFAFF4B50",13,3486625097,"2014-06-26T14:58:17Z",44100,5844992,182648,21601,3,"File",2007,,,,,,,,,,,,,,,,
"Hissing Fauna, Are You the Destroyer?","Of Montreal",231,"2013-12-19T01:28:27Z","2007-08-11T04:13:34Z",5,"Alternative","MPEG audio file",1,"file://localhost/C:/Users/Administrator/Music/iTunes/iTunes%20Media/Music/Of%20Montreal/Hissing%20Fauna,%20Are%20You%20the%20Destroyer_/04%20Heimdalsgate%20Like%20a%20Promethean%20Cu.mp3","Heimdalsgate Like a Promethean Curse","156CECBEFD9FC842",16,3486624915,"2014-06-26T14:55:15Z",44100,5740544,198661,21603,4,"File",2007,,,,,,,,,,,,,,,,
"Hissing Fauna, Are You the Destroyer?","Of Montreal",221,"2013-12-19T01:28:27Z","2007-08-11T04:13:38Z",5,"Alternative","MPEG audio file",1,"file://localhost/C:/Users/Administrator/Music/iTunes/iTunes%20Media/Music/Of%20Montreal/Hissing%20Fauna,%20Are%20You%20the%20Destroyer_/12%20We%20Were%20Born%20The%20Mutants%20Again%20Wi.mp3","We Were Born The Mutants Again With Leafling","1F78D4334361B5F0",23,3486647815,"2014-06-26T21:16:55Z",44100,8255488,298057,21619,12,"File",2007,,,,,,,,,,,,,,,,
"mp3ray.ru","Whatcha Say",320,"2014-04-01T16:32:30Z","2014-04-01T16:32:28Z",5,"mp3ray.ru","MPEG audio file",1,"file://localhost/C:/Users/Administrator/Music/iTunes/iTunes%20Media/Music/Whatcha%20Say/mp3ray.ru/tumblr_m9o9i91ltF1rshubwo1.mp3","Jason Derulo","152D7FDCF5C3C3CE",45,3486308979,"2014-06-22T23:09:39Z",44100,8908928,222589,39793,,"File",,,,,,,,,,,,,,,,,
"Season Of Da Siccness","Brotha Lynch Hung",128,"2013-12-19T01:13:36Z","2013-12-16T00:37:56Z",5,"Rap","MPEG audio file",1,"file://localhost/C:/Users/Administrator/Music/iTunes/iTunes%20Media/Music/Brotha%20Lynch%20Hung/Season%20Of%20Da%20Siccness/07%20-%20Locc%202%20Da%20Brain.mp3","07 - Locc 2 Da Brain","4E6D60DF8E8AD51C",14,3486900692,"2014-06-29T19:31:32Z",44100,5277196,329560,8387,7,"File",1994,,,,,,,,,,,,,,,,
"The Knot","Wye Oak",192,"2014-04-01T14:16:20Z","2014-04-01T14:15:12Z",5,"Alternative","MPEG audio file",1,"file://localhost/C:/Users/Administrator/Music/iTunes/iTunes%20Media/Music/Wye%20Oak/The%20Knot/10%20-%20Wye%20Oak%20-%20Sight,%20Flight.mp3","Sight, Flight","8D7A89365830065B",87,3486901017,"2014-06-29T19:36:57Z",44100,7805265,325198,39791,10,"File",2009,"Wye Oak","Merge Records","Knot",,,,,,,,,,,,,
"Hissing Fauna, Are You the Destroyer?","Of Montreal",224,"2013-12-19T01:28:27Z","2007-08-11T04:13:36Z",5,"Alternative","MPEG audio file",1,"file://localhost/C:/Users/Administrator/Music/iTunes/iTunes%20Media/Music/Of%20Montreal/Hissing%20Fauna,%20Are%20You%20the%20Destroyer_/10%20Labyrinthian%20Pomp.mp3","Labyrinthian Pomp","5E9132320B4FE59A",20,3486901218,"2014-06-29T19:40:18Z",44100,5642240,201325,21615,10,"File",2007,,,,,,,,,,,,,,,,
"Hissing Fauna, Are You the Destroyer?","Of Montreal",231,"2013-12-19T01:28:27Z","2007-08-11T04:13:36Z",5,"Alternative","MPEG audio file",1,"file://localhost/C:/Users/Administrator/Music/iTunes/iTunes%20Media/Music/Of%20Montreal/Hissing%20Fauna,%20Are%20You%20the%20Destroyer_/09%20Faberge%20Falls%20For%20Shuggie.mp3","Faberge Falls For Shuggie","B2F688E48FA2EA75",18,3486901489,"2014-06-29T19:44:49Z",44100,7849984,271438,21613,9,"File",2007,,,,,,,,,,,,,,,,
"Hissing Fauna, Are You the Destroyer?","Of Montreal",232,"2013-12-19T01:28:27Z","2007-08-11T04:13:36Z",5,"Alternative","MPEG audio file",1,"file://localhost/C:/Users/Administrator/Music/iTunes/iTunes%20Media/Music/Of%20Montreal/Hissing%20Fauna,%20Are%20You%20the%20Destroyer_/08%20Bunny%20Ain't%20No%20Kind%20Of%20Rider.mp3","Bunny Ain't No Kind Of Rider","5DBDF733D897F91E",21,3486901720,"2014-06-29T19:48:40Z",44100,6719488,231262,21611,8,"File",2007,,,,,,,,,,,,,,,,
"Single","Lily Allen",252,"2014-03-05T14:01:07Z","2014-03-05T14:01:33Z",5,,"MPEG audio file",1,"file://localhost/C:/Users/Administrator/Music/iTunes/iTunes%20Media/Music/www.viperial.com/www.viperial.com/audio.mp3","L8 CMMR","27D085214C0FCFA1",53,3486901927,"2014-06-29T19:52:07Z",44100,6519710,206393,39681,,"File",2014,"www.viperial.com","www.viperial.com",,"www.viperial.com","www.viperial.com",,,,,,,,,,,
"Shriek","Wye Oak",320,"2014-02-04T14:54:26Z","2014-02-04T14:54:21Z",5,,"MPEG audio file",1,"file://localhost/C:/Users/Administrator/Music/iTunes/iTunes%20Media/Music/Wye%20Oak/Shriek/Wye-Oak-The-Tower.mp3","The Tower","8D19EAA303A96D99",115,3486902173,"2014-06-29T19:56:13Z",44100,9859754,246439,39605,3,"File",2014,"Wye Oak",,,,,"Tower",10,,,,,,,,,
"Ancient Mars","The Zolas",256,"2014-02-03T19:56:12Z","2014-02-03T19:51:50Z",5,"Alternative","Purchased AAC audio file",1,"file://localhost/C:/Users/Administrator/Music/iTunes/iTunes%20Media/Music/The%20Zolas/Ancient%20Mars/03%20Ancient%20Mars.m4a","Ancient Mars","5E179371D0D8C73C",117,3486902395,"2014-06-29T19:59:55Z",44100,7968608,222398,39537,3,"File",2012,"The Zolas",,,,,,10,1,1,1,true,"2012-10-02T07:00:00Z","Zolas","Zolas",,
"Island Intervals","Death Vessel",250,"2014-02-25T20:46:59Z","2014-02-25T20:35:47Z",5,"Indie Folk","MPEG audio file",1,"file://localhost/C:/Users/Administrator/Music/iTunes/iTunes%20Media/Music/Death%20Vessel/Island%20Intervals/04%20Mercury%20Dime.mp3","Mercury Dime","45E80B0BE0172A24",93,3486902597,"2014-06-29T20:03:17Z",44100,6310513,201168,39627,4,"File",2014,"Death Vessel",,,,,,8,,1,1,,,,,,
"Stillness Is The Move (EP)","Dirty Projectors",192,"2013-12-19T01:15:29Z","2010-10-13T16:33:15Z",5,"Psychedelic Pop","AAC audio file",1,"file://localhost/C:/Users/Administrator/Music/iTunes/iTunes%20Media/Music/Dirty%20Projectors/Stillness%20Is%20The%20Move%20(EP)/01%20Stillness%20Is%20The%20Move.m4a","Stillness Is The Move","25D5ADBDB1CB4E9D",5,3486899521,"2014-06-29T19:12:01Z",44100,8617983,318640,11939,1,"File",2009,,,,,"David Longstreth And Amber Coffman",,5,1,1,1,,,,,,
"Home","Dixie Chicks",192,"2013-12-19T01:15:30Z","2012-04-13T07:09:51Z",5,"Bluegrass","MPEG audio file",1,"file://localhost/C:/Users/Administrator/Music/iTunes/iTunes%20Media/Music/Dixie%20Chicks/Home/01%20-%20Dixie%20Chicks%20-%20Long%20Time%20Gone.mp3","Long Time Gone","C49B0171A565FA52",3,3486899771,"2014-06-29T19:16:11Z",44100,6005580,250174,11953,1,"File",2002,,,,,,,,,,,,,,,,
"Home","Dixie Chicks",192,"2013-12-19T01:15:30Z","2012-04-13T07:09:50Z",5,"Bluegrass","MPEG audio file",1,"file://localhost/C:/Users/Administrator/Music/iTunes/iTunes%20Media/Music/Dixie%20Chicks/Home/02%20-%20Dixie%20Chicks%20-%20Landslide.mp3","Landslide","D6722B2656FD96F4",6,3486900001,"2014-06-29T19:20:01Z",44100,5534744,230556,11955,2,"File",2002,,,,,,,,,,,,,,,,
"Home","Dixie Chicks",192,"2013-12-19T01:15:30Z","2012-04-13T07:09:54Z",5,"Bluegrass","MPEG audio file",1,"file://localhost/C:/Users/Administrator/Music/iTunes/iTunes%20Media/Music/Dixie%20Chicks/Home/03%20-%20Dixie%20Chicks%20-%20Travelin'%20Soldier.mp3","Travelin' Soldier","78350E516252636D",5,3486900345,"2014-06-29T19:25:45Z",44100,8248143,343614,11957,3,"File",2002,,,,,,,,,,,,,,,,
"Home","Dixie Chicks",192,"2013-12-19T01:15:30Z","2012-04-13T07:09:49Z",5,"Bluegrass","MPEG audio file",1,"file://localhost/C:/Users/Administrator/Music/iTunes/iTunes%20Media/Music/Dixie%20Chicks/Home/05%20-%20Dixie%20Chicks%20-%20White%20Trash%20Wedding.mp3","White Trash Wedding","73EF69195C7202A9",4,3486380890,"2014-06-23T19:08:10Z",44100,3391251,141244,11961,5,"File",2002,,,,,,,,,,,,,,,,
"16 COUNTRY SUPER HITS","Roger Miller",192,"2014-01-13T15:18:56Z","2014-01-12T02:06:08Z",5,"Country","MPEG audio file",1,"file://localhost/C:/Users/Administrator/Music/iTunes/iTunes%20Media/Music/Roger%20Miller/16%20COUNTRY%20SUPER%20HITS/08%20-%20Ruby.mp3","Ruby","C7DA4FF53E7D5670",28,3486307829,"2014-06-22T22:50:29Z",44100,4213295,175542,39459,8,"File",,,,,,,,,,,,,,,,,
"Crooks & Lovers","Mount Kimbie",242,"2013-12-19T01:19:38Z","2012-09-20T12:47:24Z",5,"Dubstep","MPEG audio file",1,"file://localhost/C:/Users/Administrator/Music/iTunes/iTunes%20Media/Music/Mount%20Kimbie/Crooks%20&%20Lovers/06%20Carbonated.mp3","Carbonated","78B8C1A1FE8EB85C",5,3485866001,"2014-06-17T20:06:41Z",44100,7882527,260205,19837,6,"File",2010,,,,,,,11,,,,,,,,,
"The Electric Version","The New Pornographers",128,"2013-12-19T01:36:22Z","2007-08-11T04:05:46Z",5,"Alternative & Punk","AAC audio file",1,"file://localhost/C:/Users/Administrator/Music/iTunes/iTunes%20Media/Music/The%20New%20Pornographers/The%20Electric%20Version/01%20The%20Electric%20Version.m4a","The Electric Version","9FDC57DAE0A3F736",4,3486304705,"2014-06-22T21:58:25Z",44100,2823693,173056,32145,1,"File",,,,"Electric Version",,,"Electric Version",22,,,,,,,"New Pornographers",,
"The Electric Version","The New Pornographers",128,"2013-12-19T01:36:22Z","2007-08-11T04:05:46Z",5,"Alternative & Punk","AAC audio file",1,"file://localhost/C:/Users/Administrator/Music/iTunes/iTunes%20Media/Music/The%20New%20Pornographers/The%20Electric%20Version/02%20From%20Blown%20Speakers.m4a","From Blown Speakers","2E89585DF276A93A",5,3486304875,"2014-06-22T22:01:15Z",44100,2757933,169063,32147,2,"File",,,,"Electric Version",,,,22,,,,,,,"New Pornographers",,
"The Electric Version","The New Pornographers",128,"2013-12-19T01:36:22Z","2007-08-11T04:05:46Z",5,"Alternative & Punk","AAC audio file",1,"file://localhost/C:/Users/Administrator/Music/iTunes/iTunes%20Media/Music/The%20New%20Pornographers/The%20Electric%20Version/03%20The%20Laws%20Have%20Changed.m4a","The Laws Have Changed","36F9E9BD60A0745B",5,3486305081,"2014-06-22T22:04:41Z",44100,3357722,206377,32149,3,"File",,,,"Electric Version",,,"Laws Have Changed",22,,,,,,,"New Pornographers",,
"The Dreaming","Kate Bush",192,"2013-12-19T01:18:05Z","2013-01-16T19:47:14Z",5,"Pop","MPEG audio file",1,"file://localhost/C:/Users/Administrator/Music/iTunes/iTunes%20Media/Music/Kate%20Bush/The%20Dreaming/gaffa.mp3","Suspended In Gaffa","9ABED29B77CEBBF6",8,3486474705,"2014-06-24T21:11:45Z",44100,5646534,235180,17123,4,"File",1982,,,"Dreaming",,"Kate Bush",,10,,1,1,,,,,,
"Look What the Cat Dragged In, Part 6","Lucius",128,"2013-12-19T01:18:37Z","2013-01-16T19:43:51Z",5,"Mixtape","MPEG audio file",1,"file://localhost/C:/Users/Administrator/Music/iTunes/iTunes%20Media/Music/Lucius/Look%20What%20the%20Cat%20Dragged%20In,%20Part%206/Lucius%20-%20Shenandoah.mp3","Shenandoah","35F900D435A3B50B",11,3486562036,"2014-06-25T21:27:16Z",44100,4385053,273920,18207,10,"File",2010,,,,,,,12,,,,,,,,,
,"Regina Spektor",128,"2013-12-19T01:38:15Z","2011-12-11T16:21:32Z",5,,"MPEG audio file",1,"file://localhost/C:/Users/Administrator/Music/iTunes/iTunes%20Media/Music/Unknown%20Artist/Unknown%20Album/Regina%20Spektor%20-%20My%20Man.mp3","My Man","F78BFB0DBA860034",10,3486562204,"2014-06-25T21:30:04Z",44100,2705703,168463,35003,,"File",,,,,,,,,,,,,,,,,
,"Drake Ft. Lil Wayne",160,"2013-12-19T01:39:38Z","2013-01-16T19:46:54Z",5,"Rap","MPEG audio file",1,"file://localhost/C:/Users/Administrator/Music/iTunes/iTunes%20Media/Music/www.SongsLover.com/Single%202011/Drake%20Ft.%20Lil%20Wayne%20-%20The%20Motto%20(www.SongsLover.com).mp3","The Motto ","4391C339C28A2B68",11,3486562386,"2014-06-25T21:33:06Z",44100,3700540,181263,36845,,"File",2011,,,,,,"Motto ",,1,,,,,,,,
"Ellie's 50s/60s Mix","Johnny Cash & June Carter",160,"2013-12-19T01:17:52Z","2007-08-11T04:21:14Z",5,,"MPEG audio file",1,"file://localhost/C:/Users/Administrator/Music/iTunes/iTunes%20Media/Music/Johnny%20Cash%20&%20June%20Carter/Ellie's%2050s_60s%20Mix/15%20Jackson.mp3","Jackson","172CC5812EF4BC6A",10,3486562556,"2014-06-25T21:35:56Z",44100,3404899,170135,16781,15,"File",,,,,,,,29,,,,,,,,,
"In Rainbows","Radiohead",242,"2013-12-19T01:30:08Z","2010-09-19T16:05:06Z",5,"Alternative, Rock, Electronic","MPEG audio file",1,"file://localhost/C:/Users/Administrator/Music/iTunes/iTunes%20Media/Music/Radiohead/In%20Rainbows/1-03%20Nude.mp3","Nude","D1BEFE86B3D44BAA",9,3485851761,"2014-06-17T16:09:21Z",44100,7967220,255451,24159,3,"File",2007,"Radiohead",,," 000007E8 00000000 00002111 00000000 00030849 00000000 00007B4C 00000000 0003A98E 00000000","Radiohead",,,,2,1,,,,,,
"In Rainbows","Radiohead",160,"2013-12-19T01:30:11Z","2010-09-11T16:11:34Z",5,"Rock","MPEG audio file",1,"file://localhost/C:/Users/Administrator/Music/iTunes/iTunes%20Media/Music/Radiohead/In%20Rainbows/3%20-%20Nude.mp3","Nude","A42C3E70B48DE998",6,3485851371,"2014-06-17T16:02:51Z",44100,5109760,255425,24225,3,"File",2008,,,,"Camille",,,,,,,,,,,,
"Hissing Fauna, Are You the Destroyer?","Of Montreal",231,"2013-12-19T01:28:27Z","2007-08-11T04:13:34Z",5,"Alternative","MPEG audio file",1,"file://localhost/C:/Users/Administrator/Music/iTunes/iTunes%20Media/Music/Of%20Montreal/Hissing%20Fauna,%20Are%20You%20the%20Destroyer_/06%20A%20Sentence%20of%20Sorts%20In%20Kongsvinge.mp3","A Sentence of Sorts In Kongsvinger","19A3F26BB3361740",13,3486624511,"2014-06-26T14:48:31Z",44100,8595456,296489,21607,6,"File",2007,,,,,,"Sentence of Sorts In Kongsvinger",,,,,,,,,,
"Hissing Fauna, Are You the Destroyer?","Of Montreal",216,"2013-12-19T01:28:27Z","2007-08-11T04:13:34Z",5,"Alternative","MPEG audio file",1,"file://localhost/C:/Users/Administrator/Music/iTunes/iTunes%20Media/Music/Of%20Montreal/Hissing%20Fauna,%20Are%20You%20the%20Destroyer_/05%20Gronlandic%20Edit.mp3","Gronlandic Edit","587D75B3BA8D1F37",16,3486624716,"2014-06-26T14:51:56Z",44100,5531648,204800,21605,5,"File",2007,,,,,,,,,,,,,,,,
"Sanctum FPS-TD : OST","GSTFS",236,"2013-12-19T01:17:06Z","2012-09-09T19:37:05Z",5,"OST: Game","MPEG audio file",1,"file://localhost/C:/Users/Administrator/Music/iTunes/iTunes%20Media/Music/GSTFS/Sanctum%20FPS-TD%20_%20OST/04%20-%20GSTFS%20-%20Sanctum%20FPS-TD%20%20OST%20-%20Loek%203.mp3","Loek 3","87B4CD286EEDED7F",9,3486725350,"2014-06-27T18:49:10Z",44100,9352191,316395,15439,4,"File",2011,"GSTFS",,,,"Gustaf Tivander",,,,,1,,,,,,
"Hissing Fauna, Are You the Destroyer?","Of Montreal",236,"2013-12-19T01:28:27Z","2007-08-11T04:13:36Z",5,"Alternative","MPEG audio file",1,"file://localhost/C:/Users/Administrator/Music/iTunes/iTunes%20Media/Music/Of%20Montreal/Hissing%20Fauna,%20Are%20You%20the%20Destroyer_/07%20The%20Past%20Is%20A%20Grotesque%20Animal.mp3","The Past Is A Grotesque Animal","B7DE313E17A865B1",9,3486624215,"2014-06-26T14:43:35Z",44100,21084160,713116,21609,7,"File",2007,,,,,,"Past Is A Grotesque Animal",,,,,,,,,,
"Holy Fire","Foals",320,"2013-12-19T01:16:17Z","2013-02-13T21:36:33Z",5,"Indie","MPEG audio file",1,"file://localhost/C:/Users/Administrator/Music/iTunes/iTunes%20Media/Music/Foals/Holy%20Fire/03-foals-my_number.mp3","My Number","46EE726BCABF76F9",4,3485868088,"2014-06-17T20:41:28Z",48000,9622365,240552,13423,3,"File",,,,,,,,,,,,,"2013-01-01T12:00:00Z",,,,
"Harper Simon - Get Free Music at RCRD LBL.com","Harper Simon",160,"2013-12-19T01:17:14Z","2013-04-01T00:02:58Z",5,,"MPEG audio file",1,"file://localhost/C:/Users/Administrator/Music/iTunes/iTunes%20Media/Music/Harper%20Simon/Harper%20Simon%20-%20Get%20Free%20Music%20at%20RCRD%20LB/Harper%20Simon%20-%20Wishes%20And%20Stars.mp3","Wishes And Stars","04DF15A2D47A17FF",5,3485869307,"2014-06-17T21:01:47Z",44100,3626069,180140,15687,,"File",,"Harper Simon",,,,,,,1,,,,,,,,
"Old Friends","Simon & Garfunkel",256,"2013-12-19T01:32:18Z","2010-04-08T18:47:54Z",5,"Folk","MPEG audio file",1,"file://localhost/C:/Users/Administrator/Music/iTunes/iTunes%20Media/Music/Simon%20&%20Garfunkel/Old%20Friends/16%20The%20Only%20Living%20Boy%20In%20New%20York.mp3","The Only Living Boy In New York","F720348F70052B5B",2,3485869658,"2014-06-17T21:07:38Z",44100,7686144,240143,26877,16,"File",1997,,,,"Ripped by Winamp",,"Only Living Boy In New York",,,,,,,,,,
,"KOOL A.D.",128,"2013-12-19T01:38:14Z","2013-06-11T19:37:35Z",5,,"MPEG audio file",1,"file://localhost/C:/Users/Administrator/Music/iTunes/iTunes%20Media/Music/Unknown%20Artist/Unknown%20Album/DYfDsQynwSNp.128.mp3","Gwyneth Paltrow (Feat. Heems)","65967D17D97D92D3",7,3485947231,"2014-06-18T18:40:31Z",44100,3735974,232855,34963,,"File",,,,,,,,,,,,,,,,,
"pitchfork's 200 greatest songs of the 1960s","The Beatles",128,"2013-12-19T01:35:17Z","2007-08-04T05:37:40Z",5,,"MPEG audio file",1,"file://localhost/C:/Users/Administrator/Music/iTunes/iTunes%20Media/Music/The%20Beatles/pitchfork's%20200%20greatest%20songs%20of%20the%2019/Eleanor%20Rigby.mp3","Eleanor Rigby","AC9623C5DC2A8895",3,3486021439,"2014-06-19T15:17:19Z",44100,2043904,127686,30219,,"File",,,,,,,,,,,,,,,"Beatles",,
"pitchfork's 200 greatest songs of the 1960s","The Beatles",204,"2013-12-19T01:35:17Z","2007-08-04T05:37:26Z",5,,"MPEG audio file",1,"file://localhost/C:/Users/Administrator/Music/iTunes/iTunes%20Media/Music/The%20Beatles/pitchfork's%20200%20greatest%20songs%20of%20the%2019/I%20Am%20The%20Walrus.mp3","I Am The Walrus","E82C01D1A6AC36DC",3,3486021716,"2014-06-19T15:21:56Z",44100,7077888,277315,30221,,"File",,,,,,,,,,,,,,,"Beatles",,
"Rubber Soul","Beatles, The",123,"2013-12-19T01:12:51Z","2009-10-20T22:27:56Z",5,"Classic Rock","AAC audio file",1,"file://localhost/C:/Users/Administrator/Music/iTunes/iTunes%20Media/Music/Beatles,%20The/Rubber%20Soul/05%20Think%20for%20Yourself.m4a","Think for Yourself","15EEEE9777C4C3B6",3,3486020218,"2014-06-19T14:56:58Z",44100,3347580,138669,7199,5,"File",1965,,,,,,,14,1,,,,,,,,
"Rubber Soul","Beatles, The",192,"2013-12-19T01:12:51Z","2009-10-20T22:27:56Z",5,"Classic Rock","MPEG audio file",1,"file://localhost/C:/Users/Administrator/Music/iTunes/iTunes%20Media/Music/Beatles,%20The/Rubber%20Soul/06%20The%20Word.mp3","The Word","46A764DBE956AD58",2,3486020381,"2014-06-19T14:59:41Z",44100,5103105,163840,7201,6,"File",1965,,,,,,"Word",14,1,,,,,,,,
"Rubber Soul","Beatles, The",128,"2013-12-19T01:12:51Z","2009-10-20T22:27:56Z",5,"Classic Rock","MPEG audio file",1,"file://localhost/C:/Users/Administrator/Music/iTunes/iTunes%20Media/Music/Beatles,%20The/Rubber%20Soul/07%20Michelle.mp3","Michelle","7202F7EB43D45B49",4,3486020544,"2014-06-19T15:02:24Z",44100,3769607,162455,7203,7,"File",1965,,,,,,,14,1,,,,,,,,
"Rubber Soul","Beatles, The",128,"2013-12-19T01:12:51Z","2012-02-28T04:37:45Z",5,"Classic Rock","MPEG audio file",1,"file://localhost/C:/Users/Administrator/Music/iTunes/iTunes%20Media/Music/Beatles,%20The/Rubber%20Soul/08%20What%20Goes%20On.mp3","What Goes On","9606EADDFBADDB98",2,3486020715,"2014-06-19T15:05:15Z",44100,3908537,170840,7205,8,"File",1965,"The Beatles",,," 00000228 00000000 00000D98 00000000 000186CE 00000000 00003290 00000000 00027145 00000000","John Lennon/Paul McCartney/Starkey",,14,1,,,,,"Beatles",,,
"Rubber Soul","Beatles, The",128,"2013-12-19T01:12:51Z","2009-10-20T22:27:58Z",5,"Classic Rock","MPEG audio file",1,"file://localhost/C:/Users/Administrator/Music/iTunes/iTunes%20Media/Music/Beatles,%20The/Rubber%20Soul/09%20Girl.mp3","Girl","BA8CAD5F3D6851B5",3,3486030612,"2014-06-19T17:50:12Z",44100,3631767,153808,7207,9,"File",1965,,,,,,,14,1,,,,,,,,
"Rubber Soul","Beatles, The",192,"2013-12-19T01:12:51Z","2009-10-20T22:27:58Z",5,"Classic Rock","MPEG audio file",1,"file://localhost/C:/Users/Administrator/Music/iTunes/iTunes%20Media/Music/Beatles,%20The/Rubber%20Soul/10%20I'm%20Looking%20Through%20You.mp3","I'm Looking Through You","13F290FD082E04D5",5,3486030755,"2014-06-19T17:52:35Z",44100,4601806,142968,7209,10,"File",1965,,,,,,,14,1,,,,,,,,
"Rubber Soul","Beatles, The",128,"2013-12-19T01:12:51Z","2009-10-20T22:27:58Z",5,"Classic Rock","MPEG audio file",1,"file://localhost/C:/Users/Administrator/Music/iTunes/iTunes%20Media/Music/Beatles,%20The/Rubber%20Soul/11%20In%20My%20Life.mp3","In My Life","01D75E7EEDA69EB5",4,3486030458,"2014-06-19T17:47:38Z",44100,3530553,147513,7211,11,"File",1965,,,,,,,14,1,,,,,,,,
"White Album [disc 1]","The Beatles",200,"2013-12-19T01:35:19Z","2003-06-12T00:59:30Z",5,"Rock","MPEG audio file",1,"file://localhost/C:/Users/Administrator/Music/iTunes/iTunes%20Media/Music/The%20Beatles/White%20Album%20%5Bdisc%201%5D/09%20Martha%20My%20Dear.mp3","Martha My Dear","6F2645B8E9B9C8A1",6,3486026667,"2014-06-19T16:44:27Z",44100,3730663,148793,30271,9,"File",1968,,,,"ÜberStandard - UberNet.org",,,17,,,,,,,"Beatles",,
,"The Beatles",192,"2013-12-19T01:35:18Z","2007-08-11T04:07:36Z",5,,"MPEG audio file",1,"file://localhost/C:/Users/Administrator/Music/iTunes/iTunes%20Media/Music/The%20Beatles/Unknown%20Album/All%20My%20Loving.mp3","All My Loving","3F4638B1879A0E55",3,3486023240,"2014-06-19T15:47:20Z",44100,3157390,131552,30237,,"File",,,,,,,,,,,,,,,"Beatles",,
,"The Beatles",128,"2013-12-19T01:35:18Z","2007-08-11T04:07:36Z",5,,"MPEG audio file",1,"file://localhost/C:/Users/Administrator/Music/iTunes/iTunes%20Media/Music/The%20Beatles/Unknown%20Album/Come%20Together.mp3","Come Together","72B0C0665280C565",3,3486023501,"2014-06-19T15:51:41Z",44100,4169778,260597,30239,,"File",,,,,,,,,,,,,,,"Beatles",,
,"The Beatles",128,"2013-12-19T01:35:18Z","2007-08-11T04:07:36Z",5,,"MPEG audio file",1,"file://localhost/C:/Users/Administrator/Music/iTunes/iTunes%20Media/Music/The%20Beatles/Unknown%20Album/Daytripper.mp3","Daytripper","BD98BC29FDAB77BC",3,3486023671,"2014-06-19T15:54:31Z",44100,2712846,169534,30241,,"File",,,,,,,,,,,,,,,"Beatles",,
"Beatles, The","Beatles, The",128,"2013-12-19T01:12:44Z","2012-02-28T04:29:44Z",5,"Classic Rock","MPEG audio file",1,"file://localhost/C:/Users/Administrator/Music/iTunes/iTunes%20Media/Music/Beatles,%20The/Beatles,%20The/23%20Helter%20Skelter.mp3","Helter Skelter","211DAC90C6B3F031",1,3486027071,"2014-06-19T16:51:11Z",44100,4324420,269818,7043,23,"File",1968,"The Beatles",,," 00000AF3 00000000 000027B9 00000000 000222F7 00000000 00004C5C 00000000 00007575 00000000",,,30,1,,,,,"Beatles",,,
"Beatles, The","Beatles, The",320,"2013-12-19T01:12:44Z","2012-02-28T04:29:44Z",5,"Classic Rock","MPEG audio file",1,"file://localhost/C:/Users/Administrator/Music/iTunes/iTunes%20Media/Music/Beatles,%20The/Beatles,%20The/24%20Long,%20Long,%20Long.mp3","Long, Long, Long","87A698898861820E",4,3486027256,"2014-06-19T16:54:16Z",44100,7384372,184424,7045,24,"File",1968,"The Beatles",,," 000000AE 00000000 000007E5 00000000 00029855 00000000 00002E81 00000000 00029855 00000000",,,30,1,,,,,"Beatles",,,
"Beatles, The","Beatles, The",128,"2013-12-19T01:12:44Z","2009-10-20T22:27:26Z",5,"Classic Rock","MPEG audio file",1,"file://localhost/C:/Users/Administrator/Music/iTunes/iTunes%20Media/Music/Beatles,%20The/Beatles,%20The/25%20Revolution%201.mp3","Revolution 1","0304376B8FA899B6",1,3486027458,"2014-06-19T16:57:38Z",44100,3263810,203572,7047,25,"File",1968,,,,,,,30,1,,,,,,,,
"Beatles, The","Beatles, The",192,"2013-12-19T01:12:44Z","2009-10-20T22:27:26Z",5,"Classic Rock","AAC audio file",1,"file://localhost/C:/Users/Administrator/Music/iTunes/iTunes%20Media/Music/Beatles,%20The/Beatles,%20The/26%20Honey%20Pie.m4a","Honey Pie","7EE4B5625F3CBDAB",1,3486027619,"2014-06-19T17:00:19Z",44100,3920350,161493,7049,26,"File",1968,,,,,,,30,1,,,,,,,,
"Beatles, The","Beatles, The",160,"2013-12-19T01:12:44Z","2009-10-20T22:27:22Z",5,"Classic Rock","MPEG audio file",1,"file://localhost/C:/Users/Administrator/Music/iTunes/iTunes%20Media/Music/Beatles,%20The/Beatles,%20The/16%20I%20Will.mp3","I Will","DA504E1DDCA092FD",1,3486027763,"2014-06-19T17:02:43Z",44100,2128540,106083,7029,16,"File",1968,,,,,,,30,1,,,,,,,,
"Beatles, The","Beatles, The",128,"2013-12-19T01:12:44Z","2009-10-20T22:27:22Z",5,"Classic Rock","MPEG audio file",1,"file://localhost/C:/Users/Administrator/Music/iTunes/iTunes%20Media/Music/Beatles,%20The/Beatles,%20The/17%20Julia.mp3","Julia","567E353AA06D7AB4",1,3486027937,"2014-06-19T17:05:37Z",44100,2792195,174080,7031,17,"File",1968,,,,,,,30,1,,,,,,,,
"Beatles, The","Beatles, The",128,"2013-12-19T01:12:44Z","2009-10-20T22:27:24Z",5,"Classic Rock","MPEG audio file",1,"file://localhost/C:/Users/Administrator/Music/iTunes/iTunes%20Media/Music/Beatles,%20The/Beatles,%20The/20%20Mother%20Nature's%20Son.mp3","Mother Nature's Son","F6FE49BCFAE1AE81",1,3486028112,"2014-06-19T17:08:32Z",44100,2683550,167653,7037,20,"File",1968,,,,,,,30,1,,,,,,,,
,"NPR",128,"2014-06-10T16:02:28Z","2014-06-10T16:02:22Z",5,"Blues","MPEG audio file",1,"file://localhost/C:/Users/Administrator/Music/iTunes/iTunes%20Media/Music/NPR/Unknown%20Album/20140610_asc_wholeshow.mp3","20140610_asc_wholeshow","49208E9429FBF5A6",1,3486114441,"2014-06-20T17:07:21Z",44100,35439723,2214974,40861,,"File",,,,,,,,,,,,,,,,,
"Naked Baby Photos","Ben Folds Five",256,"2013-12-19T01:13:05Z","2010-06-27T22:50:40Z",5,"Alternative & Punk","AAC audio file",1,"file://localhost/C:/Users/Administrator/Music/iTunes/iTunes%20Media/Music/Ben%20Folds%20Five/Naked%20Baby%20Photos/09%20Underground.m4a","Underground","1DC019E6ECDF8216",1,3486301885,"2014-06-22T21:11:25Z",44100,9665634,283226,7505,9,"File",1998,,,,,,,16,,,,,,,,,
"Naked Baby Photos","Ben Folds Five",256,"2013-12-19T01:13:05Z","2010-06-27T22:50:57Z",5,"Alternative & Punk","AAC audio file",1,"file://localhost/C:/Users/Administrator/Music/iTunes/iTunes%20Media/Music/Ben%20Folds%20Five/Naked%20Baby%20Photos/10%20Ultimate%20Sacrifice.m4a","Ultimate Sacrifice","CE2D67D3C567E2D2",1,3486302094,"2014-06-22T21:14:54Z",44100,6812608,208533,7507,10,"File",1998,,,,,,,16,,,,,,,,,
"Naked Baby Photos","Ben Folds Five",256,"2013-12-19T01:13:05Z","2010-06-27T22:51:05Z",5,"Alternative & Punk","AAC audio file",1,"file://localhost/C:/Users/Administrator/Music/iTunes/iTunes%20Media/Music/Ben%20Folds%20Five/Naked%20Baby%20Photos/11%20Satan%20Is%20My%20Master.m4a","Satan Is My Master","DB14F86DF8E7B635",1,3486302187,"2014-06-22T21:16:27Z",44100,3211096,93400,7509,11,"File",1998,,,,,,,16,,,,,,,,,
"Naked Baby Photos","Ben Folds Five",256,"2013-12-19T01:13:05Z","2010-06-27T22:51:16Z",5,"Alternative & Punk","AAC audio file",1,"file://localhost/C:/Users/Administrator/Music/iTunes/iTunes%20Media/Music/Ben%20Folds%20Five/Naked%20Baby%20Photos/12%20Julianne.m4a","Julianne","0D628BC76696FC1A",1,3486302342,"2014-06-22T21:19:02Z",44100,5189349,155400,7511,12,"File",1998,,,,,,,16,,,,,,,,,
"Naked Baby Photos","Ben Folds Five",256,"2013-12-19T01:13:05Z","2010-06-27T22:51:36Z",5,"Alternative & Punk","AAC audio file",1,"file://localhost/C:/Users/Administrator/Music/iTunes/iTunes%20Media/Music/Ben%20Folds%20Five/Naked%20Baby%20Photos/13%20Song%20For%20The%20Dumped.m4a","Song For The Dumped","174DA1CA71CA9B87",1,3486302625,"2014-06-22T21:23:45Z",44100,9238608,282133,7513,13,"File",1998,,,,,,,16,,,,,,,,,
"Wicked Little High","Bird York",273,"2013-12-19T01:13:06Z","2012-12-25T17:43:43Z",5,"Rock","MPEG audio file",1,"file://localhost/C:/Users/Administrator/Music/iTunes/iTunes%20Media/Music/Bird%20York/Wicked%20Little%20High/03%20Wicked%20Little%20High.mp3","Wicked Little High","E454C13147FA35A1",1,3486303057,"2014-06-22T21:30:57Z",44100,9348294,273110,7539,3,"File",2006,,,,,"Bird York",,12,,1,1,,,,,,
"Threads","Now, Now",270,"2014-02-03T23:31:11Z","2014-02-03T19:52:31Z",5,"Rock","MPEG audio file",1,"file://localhost/C:/Users/Administrator/Music/iTunes/iTunes%20Media/Music/Now,%20Now/Threads/08-now_now-thread%201.mp3","Thread","85425E7A9A65FC91",59,3486303998,"2014-06-22T21:46:38Z",44100,7591355,224052,39595,8,"File",2012,,,,,,,12,,,,,,,,,
"The Electric Version","The New Pornographers",128,"2013-12-19T01:36:22Z","2007-08-11T04:05:46Z",5,"Alternative & Punk","AAC audio file",1,"file://localhost/C:/Users/Administrator/Music/iTunes/iTunes%20Media/Music/The%20New%20Pornographers/The%20Electric%20Version/04%20The%20End%20of%20Medicine.m4a","The End of Medicine","AFABE5260B5867A4",4,3486305251,"2014-06-22T22:07:31Z",44100,2576309,157592,32151,4,"File",,,,"Electric Version",,,"End of Medicine",22,,,,,,,"New Pornographers",,
"The Electric Version","The New Pornographers",128,"2013-12-19T01:36:22Z","2007-08-11T04:05:46Z",5,"Alternative & Punk","AAC audio file",1,"file://localhost/C:/Users/Administrator/Music/iTunes/iTunes%20Media/Music/The%20New%20Pornographers/The%20Electric%20Version/05%20Loose%20Translation.m4a","Loose Translation","36CF758EFDFAA81F",4,3486305431,"2014-06-22T22:10:31Z",44100,2924747,179465,32153,5,"File",,,,"Electric Version",,,,22,,,,,,,"New Pornographers",,
"The Electric Version","The New Pornographers",128,"2013-12-19T01:36:23Z","2007-08-11T04:05:46Z",5,"Alternative & Punk","AAC audio file",1,"file://localhost/C:/Users/Administrator/Music/iTunes/iTunes%20Media/Music/The%20New%20Pornographers/The%20Electric%20Version/06%20Chump%20Change.m4a","Chump Change","5B7B3FED41212075",3,3486305676,"2014-06-22T22:14:36Z",44100,4189792,258390,32155,6,"File",,,,"Electric Version",,,,22,,,,,,,"New Pornographers",,
"The Electric Version","The New Pornographers",128,"2013-12-19T01:36:23Z","2007-08-11T04:05:48Z",5,"Alternative & Punk","AAC audio file",1,"file://localhost/C:/Users/Administrator/Music/iTunes/iTunes%20Media/Music/The%20New%20Pornographers/The%20Electric%20Version/07%20All%20for%20Swinging%20You%20Around.m4a","All for Swinging You Around","8978778D0004F724",4,3486305898,"2014-06-22T22:18:18Z",44100,3604165,221865,32157,7,"File",,,,"Electric Version",,,,22,,,,,,,"New Pornographers",,
"The Electric Version","The New Pornographers",128,"2013-12-19T01:36:23Z","2007-08-11T04:05:48Z",5,"Alternative & Punk","AAC audio file",1,"file://localhost/C:/Users/Administrator/Music/iTunes/iTunes%20Media/Music/The%20New%20Pornographers/The%20Electric%20Version/08%20The%20New%20Face%20of%20Zero%20and%20One.m4a","The New Face of Zero and One ","44E5FBD39105B043",4,3486306149,"2014-06-22T22:22:29Z",44100,4065539,250657,32159,8,"File",,,,"Electric Version",,,"New Face of Zero and One ",22,,,,,,,"New Pornographers",,
"The Electric Version","The New Pornographers",128,"2013-12-19T01:36:23Z","2007-08-11T04:05:48Z",5,"Alternative & Punk","AAC audio file",1,"file://localhost/C:/Users/Administrator/Music/iTunes/iTunes%20Media/Music/The%20New%20Pornographers/The%20Electric%20Version/09%20Testament%20to%20Youth%20in%20Verse.m4a","Testament to Youth in Verse","4874B25F2CB5CDB5",3,3486306386,"2014-06-22T22:26:26Z",44100,3858061,237585,32161,9,"File",,,,"Electric Version",,,,22,,,,,,,"New Pornographers",,
"The Electric Version","The New Pornographers",128,"2013-12-19T01:36:23Z","2007-08-11T04:05:48Z",5,"Alternative & Punk","AAC audio file",1,"file://localhost/C:/Users/Administrator/Music/iTunes/iTunes%20Media/Music/The%20New%20Pornographers/The%20Electric%20Version/10%20It's%20Only%20Divine%20Right.m4a","It's Only Divine Right","003B24C540A3D22D",2,3486306637,"2014-06-22T22:30:37Z",44100,4073853,251192,32163,10,"File",,,,"Electric Version",,,,22,,,,,,,"New Pornographers",,
"The Electric Version","The New Pornographers",128,"2013-12-19T01:36:23Z","2007-08-11T04:05:48Z",5,"Alternative & Punk","AAC audio file",1,"file://localhost/C:/Users/Administrator/Music/iTunes/iTunes%20Media/Music/The%20New%20Pornographers/The%20Electric%20Version/11%20Ballad%20of%20a%20Comeback%20Kid.m4a","Ballad of a Comeback Kid","83491ACA256AD930",2,3486306868,"2014-06-22T22:34:28Z",44100,3749278,230920,32165,11,"File",,,,"Electric Version",,,,22,,,,,,,"New Pornographers",,
"The Electric Version","The New Pornographers",128,"2013-12-19T01:36:23Z","2007-08-11T04:05:48Z",5,"Alternative & Punk","AAC audio file",1,"file://localhost/C:/Users/Administrator/Music/iTunes/iTunes%20Media/Music/The%20New%20Pornographers/The%20Electric%20Version/12%20July%20Jones.m4a","July Jones","0FA3D4F9ED57899E",2,3486307127,"2014-06-22T22:38:47Z",44100,4191332,258390,32167,12,"File",,,,"Electric Version",,,,22,,,,,,,"New Pornographers",,
"The Electric Version","The New Pornographers",128,"2013-12-19T01:36:23Z","2007-08-11T04:05:48Z",5,"Alternative & Punk","AAC audio file",1,"file://localhost/C:/Users/Administrator/Music/iTunes/iTunes%20Media/Music/The%20New%20Pornographers/The%20Electric%20Version/13%20Miss%20Teen%20Wordpower.m4a","Miss Teen Wordpower","60CEE34C3B36A0B4",6,3486307330,"2014-06-22T22:42:10Z",44100,3309220,203451,32169,13,"File",,,,"Electric Version",,,,22,,,,,,,"New Pornographers",,
"Shrines","Purity Ring",256,"2013-12-19T01:29:58Z","2013-06-26T01:38:10Z",5,"Electronic","Purchased AAC audio file",1,"file://localhost/C:/Users/Administrator/Music/iTunes/iTunes%20Media/Music/Purity%20Ring/Shrines/07%20Belispeak.m4a","Belispeak","6F5EFAF18E7C54EA",117,3486455099,"2014-06-24T15:44:59Z",44100,6465432,178706,23871,7,"File",2012,"Purity Ring",,,,"Corin Roddick & Megan James",,11,1,1,1,true,"2012-07-20T07:00:00Z",,,,
"Have One On Me","Joanna Newsom",214,"2013-12-19T01:17:45Z","2010-02-20T19:12:16Z",5,"Folk","MPEG audio file",1,"file://localhost/C:/Users/Administrator/Music/iTunes/iTunes%20Media/Music/Joanna%20Newsom/Have%20One%20On%20Me/01%20Easy.mp3","Easy","43659669F4DE7A65",7,3486381440,"2014-06-23T19:17:20Z",44100,9747590,363964,16571,1,"File",2010,,,,,,,,,,,,,,,,
"Have One On Me","Joanna Newsom",208,"2013-12-19T01:17:45Z","2010-02-20T19:12:08Z",5,"Folk","MPEG audio file",1,"file://localhost/C:/Users/Administrator/Music/iTunes/iTunes%20Media/Music/Joanna%20Newsom/Have%20One%20On%20Me/01%20On%20A%20Good%20Day.mp3","On A Good Day","F42063FE9B174AB5",7,3486381548,"2014-06-23T19:19:08Z",44100,2832855,108643,16573,1,"File",2010,,,,,,,,,,,,,,,,
"Have One On Me","Joanna Newsom",230,"2013-12-19T01:17:46Z","2010-02-20T19:12:24Z",5,"Folk","MPEG audio file",1,"file://localhost/C:/Users/Administrator/Music/iTunes/iTunes%20Media/Music/Joanna%20Newsom/Have%20One%20On%20Me/01%20Soft%20As%20Chalk.mp3","Soft As Chalk","60486E1882214E52",6,3486381937,"2014-06-23T19:25:37Z",44100,11207682,389041,16575,1,"File",2010,,,,,,,,,,,,,,,,
"Have One On Me","Joanna Newsom",225,"2013-12-19T01:17:46Z","2010-02-20T19:12:30Z",5,"Folk","MPEG audio file",1,"file://localhost/C:/Users/Administrator/Music/iTunes/iTunes%20Media/Music/Joanna%20Newsom/Have%20One%20On%20Me/02%20Esme.mp3","Esme","DCFA9978430CB076",5,3486382413,"2014-06-23T19:33:33Z",44100,13397424,476003,16577,2,"File",2010,,,,,,,,,,,,,,,,
"Have One On Me","Joanna Newsom",222,"2013-12-19T01:17:46Z","2010-02-20T19:12:28Z",5,"Folk","MPEG audio file",1,"file://localhost/C:/Users/Administrator/Music/iTunes/iTunes%20Media/Music/Joanna%20Newsom/Have%20One%20On%20Me/02%20Have%20One%20On%20Me.mp3","Have One On Me","7EA34ABA78A912DB",5,3486388793,"2014-06-23T21:19:53Z",44100,18425262,662021,16579,2,"File",2010,,,,,,,,,,,,,,,,
"Have One On Me","Joanna Newsom",209,"2013-12-19T01:17:46Z","2010-02-20T19:12:36Z",5,"Folk","MPEG audio file",1,"file://localhost/C:/Users/Administrator/Music/iTunes/iTunes%20Media/Music/Joanna%20Newsom/Have%20One%20On%20Me/02%20You%20And%20Me,%20Bess.mp3","You And Me, Bess","971E383B6740CC88",4,3486387604,"2014-06-23T21:00:04Z",44100,11335846,432640,16581,2,"File",2010,,,,,,,,,,,,,,,,
"Have One On Me","Joanna Newsom",219,"2013-12-19T01:17:46Z","2010-02-20T19:12:34Z",5,"Folk","MPEG audio file",1,"file://localhost/C:/Users/Administrator/Music/iTunes/iTunes%20Media/Music/Joanna%20Newsom/Have%20One%20On%20Me/03%20Autumn.mp3","Autumn","7E3A4B502614AFB2",3,3486388086,"2014-06-23T21:08:06Z",44100,13222837,481671,16585,3,"File",2010,,,,,,,,,,,,,,,,
"Penny Sparkle","Blonde Redhead",266,"2013-12-19T01:13:12Z","2010-10-08T03:20:27Z",5,"Rock","MPEG audio file",1,"file://localhost/C:/Users/Administrator/Music/iTunes/iTunes%20Media/Music/Blonde%20Redhead/Penny%20Sparkle/01%20Here%20Sometimes.mp3","Here Sometimes","A660AEFEB3B2B59E",3,3486447609,"2014-06-24T13:40:09Z",44100,9424889,283167,7735,1,"File",,,,,,,,10,,,,,,,,,
"Penny Sparkle","Blonde Redhead",269,"2013-12-19T01:13:12Z","2010-10-08T03:20:31Z",5,"Rock","MPEG audio file",1,"file://localhost/C:/Users/Administrator/Music/iTunes/iTunes%20Media/Music/Blonde%20Redhead/Penny%20Sparkle/02%20Not%20Getting%20There.mp3","Not Getting There","CC2BC196DEE230F4",2,3486447775,"2014-06-24T13:42:55Z",44100,5602368,166269,7737,2,"File",,,,,,,,10,,,,,,,,,
"Penny Sparkle","Blonde Redhead",267,"2013-12-19T01:13:12Z","2010-10-08T03:20:27Z",5,"Rock","MPEG audio file",1,"file://localhost/C:/Users/Administrator/Music/iTunes/iTunes%20Media/Music/Blonde%20Redhead/Penny%20Sparkle/03%20Will%20There%20Be%20Stars.mp3","Will There Be Stars","B3F25A533830F791",1,3486448042,"2014-06-24T13:47:22Z",44100,8957549,267337,7739,3,"File",,,,,,,,10,,,,,,,,,
"Penny Sparkle","Blonde Redhead",266,"2013-12-19T01:13:12Z","2010-10-08T03:19:51Z",5,"Rock","MPEG audio file",1,"file://localhost/C:/Users/Administrator/Music/iTunes/iTunes%20Media/Music/Blonde%20Redhead/Penny%20Sparkle/04%20My%20Plants%20Are%20Dead.mp3","My Plants Are Dead","D285AB1F6813D298",1,3486448300,"2014-06-24T13:51:40Z",44100,8583382,257880,7741,4,"File",,,,,,,,10,,,,,,,,,
"Penny Sparkle","Blonde Redhead",265,"2013-12-19T01:13:12Z","2010-10-08T03:20:31Z",5,"Rock","MPEG audio file",1,"file://localhost/C:/Users/Administrator/Music/iTunes/iTunes%20Media/Music/Blonde%20Redhead/Penny%20Sparkle/05%20Love%20Or%20Prison.mp3","Love Or Prison","33164C10E00CF284",1,3486448673,"2014-06-24T13:57:53Z",44100,12388618,373133,7743,5,"File",,,,,,,,10,,,,,,,,,
"Shrines","Purity Ring",256,"2013-12-19T01:29:57Z","2013-06-26T01:38:10Z",5,"Electronic","Purchased AAC audio file",1,"file://localhost/C:/Users/Administrator/Music/iTunes/iTunes%20Media/Music/Purity%20Ring/Shrines/01%20Crawlersout.m4a","Crawlersout","F229CFFD69E3E264",81,3486472118,"2014-06-24T20:28:38Z",44100,6818913,190400,23859,1,"File",2012,"Purity Ring",,,,"Corin Roddick & Megan James",,11,1,1,1,true,"2012-07-20T07:00:00Z",,,,
"Shrines","Purity Ring",256,"2013-12-19T01:29:57Z","2013-06-26T01:38:10Z",5,"Electronic","Purchased AAC audio file",1,"file://localhost/C:/Users/Administrator/Music/iTunes/iTunes%20Media/Music/Purity%20Ring/Shrines/02%20Fineshrine.m4a","Fineshrine","0FCBC5EF0673414D",41,3486470988,"2014-06-24T20:09:48Z",44100,7527330,209760,23861,2,"File",2012,"Purity Ring",,,,"Corin Roddick & Megan James",,11,1,1,1,true,"2012-07-20T07:00:00Z",,,,
"Shrines","Purity Ring",256,"2013-12-19T01:29:57Z","2013-06-26T01:38:10Z",5,"Electronic","Purchased AAC audio file",1,"file://localhost/C:/Users/Administrator/Music/iTunes/iTunes%20Media/Music/Purity%20Ring/Shrines/03%20Ungirthed.m4a","Ungirthed","42403681A198D3F6",58,3486471157,"2014-06-24T20:12:37Z",44100,6080915,168906,23863,3,"File",2012,"Purity Ring",,,,"Corin Roddick & Megan James",,11,1,1,1,true,"2012-07-20T07:00:00Z",,,,
"Shrines","Purity Ring",256,"2013-12-19T01:29:57Z","2013-06-26T01:38:10Z",5,"Electronic","Purchased AAC audio file",1,"file://localhost/C:/Users/Administrator/Music/iTunes/iTunes%20Media/Music/Purity%20Ring/Shrines/04%20Amenamy.m4a","Amenamy","CD312D471B71EA0C",36,3486471364,"2014-06-24T20:16:04Z",44100,7418724,207080,23865,4,"File",2012,"Purity Ring",,,,"Corin Roddick & Megan James",,11,1,1,1,true,"2012-07-20T07:00:00Z",,,,
"Shrines","Purity Ring",256,"2013-12-19T01:29:58Z","2013-06-26T01:38:10Z",5,"Electronic","Purchased AAC audio file",1,"file://localhost/C:/Users/Administrator/Music/iTunes/iTunes%20Media/Music/Purity%20Ring/Shrines/05%20Grandloves%20(feat.%20Young%20Magic).m4a","Grandloves (feat. Young Magic)","3E90D9987AA2993E",16,3486454632,"2014-06-24T15:37:12Z",44100,9564043,273066,23867,5,"File",2012,"Purity Ring",,,,"Corin Roddick, Isaac Gerasimou, Megan James, Melati Malay & Michael Italia",,11,1,1,1,true,"2012-07-20T07:00:00Z",,,,
"Shrines","Purity Ring",256,"2013-12-19T01:29:58Z","2013-06-26T01:38:10Z",5,"Electronic","Purchased AAC audio file",1,"file://localhost/C:/Users/Administrator/Music/iTunes/iTunes%20Media/Music/Purity%20Ring/Shrines/06%20Cartographist.m4a","Cartographist","A99CA85ED3EE3CDD",7,3486454920,"2014-06-24T15:42:00Z",44100,10027585,288146,23869,6,"File",2012,"Purity Ring",,,,"Corin Roddick & Megan James",,11,1,1,1,true,"2012-07-20T07:00:00Z",,,,
"Shrines","Purity Ring",256,"2013-12-19T01:29:58Z","2013-06-26T01:38:10Z",5,"Electronic","Purchased AAC audio file",1,"file://localhost/C:/Users/Administrator/Music/iTunes/iTunes%20Media/Music/Purity%20Ring/Shrines/08%20Saltkin.m4a","Saltkin","88B75B6C71F3CE6A",80,3486455304,"2014-06-24T15:48:24Z",44100,7332436,205533,23873,8,"File",2012,"Purity Ring",,,,"Corin Roddick & Megan James",,11,1,1,1,true,"2012-07-20T07:00:00Z",,,,
"Shrines","Purity Ring",256,"2013-12-19T01:29:58Z","2013-06-26T01:38:10Z",5,"Electronic","Purchased AAC audio file",1,"file://localhost/C:/Users/Administrator/Music/iTunes/iTunes%20Media/Music/Purity%20Ring/Shrines/09%20Obedear.m4a","Obedear","22292BD5E1C36A63",67,3486455514,"2014-06-24T15:51:54Z",44100,7447897,209573,23875,9,"File",2012,"Purity Ring",,,,"Corin Roddick & Megan James",,11,1,1,1,true,"2012-07-20T07:00:00Z",,,,
"Shrines","Purity Ring",256,"2013-12-19T01:29:59Z","2013-06-26T01:38:10Z",5,"Electronic","Purchased AAC audio file",1,"file://localhost/C:/Users/Administrator/Music/iTunes/iTunes%20Media/Music/Purity%20Ring/Shrines/10%20Lofticries.m4a","Lofticries","6968DD73F44843ED",58,3486455754,"2014-06-24T15:55:54Z",44100,8453336,239613,23877,10,"File",2012,"Purity Ring",,,,"Corin Roddick & Megan James",,11,1,1,1,true,"2012-07-20T07:00:00Z",,,,
"Shrines","Purity Ring",256,"2013-12-19T01:29:59Z","2013-06-26T01:38:10Z",5,"Electronic","Purchased AAC audio file",1,"file://localhost/C:/Users/Administrator/Music/iTunes/iTunes%20Media/Music/Purity%20Ring/Shrines/11%20Shuck.m4a","Shuck","57EB7166B1C27E18",36,3486455883,"2014-06-24T15:58:03Z",44100,4770420,129053,23879,11,"File",2012,"Purity Ring",,,,"Corin Roddick & Megan James",,11,1,1,1,true,"2012-07-20T07:00:00Z",,,,
"Old","Danny Brown",256,"2013-12-19T01:14:59Z","2013-10-10T22:42:58Z",5,"Hip Hop/Rap","Purchased AAC audio file",1,"file://localhost/C:/Users/Administrator/Music/iTunes/iTunes%20Media/Music/Danny%20Brown/Old/03%2025%20Bucks%20(feat.%20Purity%20Ring).m4a","25 Bucks (feat. Purity Ring)","B3B2202F66B60BC6",6,3486470588,"2014-06-24T20:03:08Z",44100,7100704,210880,10811,3,"File",2013,"Danny Brown",,"Old","RnBXclusive.se",,"25 Bucks (feat. Purity Ring)",19,1,1,1,true,"2013-09-30T07:00:00Z",,"Danny Brown",true,
"Songs For Silverman","Ben Folds",128,"2013-12-19T01:13:01Z","2007-04-05T23:12:30Z",5,"Rock","AAC audio file",1,"file://localhost/C:/Users/Administrator/Music/iTunes/iTunes%20Media/Music/Ben%20Folds/Songs%20For%20Silverman/03%20Jesusland.m4a","Jesusland","559129D1EFFD5DB1",72,3486471749,"2014-06-24T20:22:29Z",44100,4389480,270960,7393,3,"File",2005,,,,,"Ben Folds",,11,,1,1,,,,,,
"16 COUNTRY SUPER HITS","Roger Miller",192,"2014-01-13T15:18:39Z","2014-01-28T17:06:24Z",5,"Country","MPEG audio file",1,"file://localhost/C:/Users/Administrator/Music/iTunes/iTunes%20Media/Music/Roger%20Miller/16%20COUNTRY%20SUPER%20HITS/06%20-%20Chug%20A%20Lug.mp3","Chug A Lug","57D3E3179EB3EA9E",45,3486472239,"2014-06-24T20:30:39Z",44100,2923055,121782,39455,6,"File",,,,,,,,,,,,,,,,,
"16 COUNTRY SUPER HITS","Roger Miller",192,"2014-01-13T15:19:08Z","2014-01-12T02:06:08Z",5,"Country","MPEG audio file",1,"file://localhost/C:/Users/Administrator/Music/iTunes/iTunes%20Media/Music/Roger%20Miller/16%20COUNTRY%20SUPER%20HITS/14%20-%20England%20Swings.mp3","England Swings","98979990C1BE3D4E",46,3486472352,"2014-06-24T20:32:32Z",44100,2708837,112692,39471,14,"File",1986,,,,,,,,,,,,,,,,
,"KITTY",128,"2013-12-19T01:38:16Z","2013-12-10T14:38:14Z",5,,"MPEG audio file",1,"file://localhost/C:/Users/Administrator/Music/iTunes/iTunes%20Media/Music/Unknown%20Artist/Unknown%20Album/%5Btindeck.com%5D%20-%20Pae%20-%20KITTY%20-%20FLORIDA.mp3","FLORIDA","DC520BEA54D3275C",45,3486472502,"2014-06-24T20:35:02Z",44100,2417752,150465,35071,,"File",,,,,,,,,,,,,,,,,
"O Brother, Where Art Thou?","Various Artists - Soundtrack",128,"2013-12-19T01:14:45Z","2010-05-15T22:25:30Z",5,"Soundtrack","AAC audio file",1,"file://localhost/C:/Users/Administrator/Music/iTunes/iTunes%20Media/Music/Compilations/O%20Brother,%20Where%20Art%20Thou_/09%20Alison%20Krauss%20&%20Gillian%20Welch%20-%20I'll%20Fly%20Away.m4a","Alison Krauss & Gillian Welch - I'll Fly Away","7781EA520ADFC0F3",34,3486472740,"2014-06-24T20:39:00Z",44100,3861790,237910,10455,9,"File",2000,,,,"(Tito)","Alison Krauss & Gillian Welch",,19,,1,1,,,,,,true
"O Brother, Where Art Thou?","Various Artists - Soundtrack",128,"2013-12-19T01:14:45Z","2010-05-15T22:25:21Z",5,"Soundtrack","AAC audio file",1,"file://localhost/C:/Users/Administrator/Music/iTunes/iTunes%20Media/Music/Compilations/O%20Brother,%20Where%20Art%20Thou_/03%20Norman%20Blake%20-%20You%20Are%20My%20Sunshine.m4a","Norman Blake - You Are My Sunshine","4DEF224C70786E9D",16,3486473008,"2014-06-24T20:43:28Z",44100,4339140,267654,10443,3,"File",2000,,,,"(Tito)","Norman Blake",,19,,1,1,,,,,,true
"O Brother, Where Art Thou?","Various Artists - Soundtrack",128,"2013-12-19T01:14:45Z","2010-05-15T22:25:20Z",5,"Soundtrack","AAC audio file",1,"file://localhost/C:/Users/Administrator/Music/iTunes/iTunes%20Media/Music/Compilations/O%20Brother,%20Where%20Art%20Thou_/02%20Harry%20McClintock%20-%20Big%20Rock%20Candy%20Mountain.m4a","Harry McClintock - Big Rock Candy Mountain","C6CC59B28FA4CA36",26,3486473146,"2014-06-24T20:45:46Z",44100,2235239,137762,10441,2,"File",2000,,,,"(Tito)","Harry McClintock",,19,,1,1,,,,,,true
"Bowling Green","The Kossoy Sisters with Erik Darling",256,"2014-01-13T17:31:41Z","2014-01-13T17:31:34Z",5,"Folk","MPEG audio file",1,"file://localhost/C:/Users/Administrator/Music/iTunes/iTunes%20Media/Music/The%20Kossoy%20Sisters%20with%20Erik%20Darling/Bowling%20Green/kossoy_sisters-ill_fly_away.mp3","I'll Fly Away","76F9C5A6C28CAAE6",61,3486473298,"2014-06-24T20:48:18Z",44100,4871426,152163,39477,3,"File",2002,,,,,,,14,,,,,,,"Kossoy Sisters with Erik Darling",,
"Alopecia","Why?",256,"2013-12-19T01:39:19Z","2010-09-22T13:06:06Z",5,"Hip-Hop","MPEG audio file",1,"file://localhost/C:/Users/Administrator/Music/iTunes/iTunes%20Media/Music/Why_/Alopecia/01%20The%20Vowels%20Pt.%202.mp3","The Vowels Pt. 2","BD3A24D31DEFB1AF",3,3486562890,"2014-06-25T21:41:30Z",44100,7818627,244140,36353,1,"File",2008,,,,,,"Vowels Pt. 2",,,,,,,,,,
"Alopecia","Why?",128,"2013-12-19T01:39:19Z","2009-01-19T22:24:46Z",5,,"MPEG audio file",1,"file://localhost/C:/Users/Administrator/Music/iTunes/iTunes%20Media/Music/Why_/Alopecia/01%20The%20Vowels%20Pt.2.mp3","The Vowels Pt.2","C3EDCAEE16F6719E",3,3486563134,"2014-06-25T21:45:34Z",44100,3906530,244140,36355,1,"File",2008,,,,,,"Vowels Pt.2",14,,,,,,,,,
"Alopecia","Why?",256,"2013-12-19T01:39:19Z","2010-09-22T13:06:08Z",5,"Hip-Hop","MPEG audio file",1,"file://localhost/C:/Users/Administrator/Music/iTunes/iTunes%20Media/Music/Why_/Alopecia/02%20Good%20Friday%201.mp3","Good Friday","248A46AAAD572B6D",2,3486563364,"2014-06-25T21:49:24Z",44100,7357835,229825,36357,2,"File",2008,,,,,,,,,,,,,,,,
"Alopecia","Why?",256,"2013-12-19T01:39:19Z","2010-04-25T06:34:21Z",5,"Alternative","Purchased AAC audio file",1,"file://localhost/C:/Users/Administrator/Music/iTunes/iTunes%20Media/Music/Why_/Alopecia/02%20Good%20Friday.m4a","Good Friday","49E973DD6FF70DD4",2,3486563593,"2014-06-25T21:53:13Z",44100,7960879,229773,36359,2,"File",2008,"Why?",,,,,,16,1,1,1,true,"2008-03-11T07:00:00Z",,,,
"Alopecia","Why?",128,"2013-12-19T01:39:19Z","2009-01-19T22:24:46Z",5,,"MPEG audio file",1,"file://localhost/C:/Users/Administrator/Music/iTunes/iTunes%20Media/Music/Why_/Alopecia/02%20Good%20Friday.mp3","Good Friday","F30A5973512CC159",1,3486563823,"2014-06-25T21:57:03Z",44100,3677484,229825,36361,2,"File",2008,,,,,,,14,,,,,,,,,
"Alopecia","Why?",263,"2013-12-19T01:39:19Z","2010-09-22T13:06:09Z",5,"Hip-Hop","MPEG audio file",1,"file://localhost/C:/Users/Administrator/Music/iTunes/iTunes%20Media/Music/Why_/Alopecia/03%20These%20Few%20Presidents%201.mp3","These Few Presidents","A70B5F554E40691D",3,3486564008,"2014-06-25T22:00:08Z",44100,6082649,184450,36363,3,"File",2008,,,,,,,,,,,,,,,,
"Alopecia","Why?",256,"2013-12-19T01:39:19Z","2010-04-25T06:31:21Z",5,"Alternative","Purchased AAC audio file",1,"file://localhost/C:/Users/Administrator/Music/iTunes/iTunes%20Media/Music/Why_/Alopecia/03%20These%20Few%20Presidents.m4a","These Few Presidents","7F0E08718DB8543C",4,3486564192,"2014-06-25T22:03:12Z",44100,6499758,184400,36365,3,"File",2008,"Why?",,,,,,16,1,1,1,true,"2008-03-11T07:00:00Z",,,,
"Alopecia","Why?",128,"2013-12-19T01:39:19Z","2009-01-19T22:24:46Z",5,,"MPEG audio file",1,"file://localhost/C:/Users/Administrator/Music/iTunes/iTunes%20Media/Music/Why_/Alopecia/03%20These%20Few%20Presidents.mp3","These Few Presidents","B526A2C08FE11C77",3,3486564376,"2014-06-25T22:06:16Z",44100,2951498,184450,36367,3,"File",2008,,,,,,,14,,,,,,,,,
"Alopecia","Why?",245,"2013-12-19T01:39:19Z","2010-09-22T13:06:10Z",5,"Hip-Hop","MPEG audio file",1,"file://localhost/C:/Users/Administrator/Music/iTunes/iTunes%20Media/Music/Why_/Alopecia/04%20The%20Hollows%201.mp3","The Hollows","ABEB11CA444CCF09",1,3486564611,"2014-06-25T22:10:11Z",44100,7216429,234631,36369,4,"File",2008,,,,,,"Hollows",,,,,,,,,,
"Alopecia","Why?",128,"2013-12-19T01:39:19Z","2009-01-19T22:24:46Z",5,,"MPEG audio file",1,"file://localhost/C:/Users/Administrator/Music/iTunes/iTunes%20Media/Music/Why_/Alopecia/04%20The%20Hollows.mp3","The Hollows","6FC2AD07CCD9C794",2,3486564845,"2014-06-25T22:14:05Z",44100,3754389,234631,36371,4,"File",2008,,,,,,"Hollows",14,,,,,,,,,
"Alopecia","Why?",266,"2013-12-19T01:39:19Z","2010-09-22T13:06:12Z",5,"Hip-Hop","MPEG audio file",1,"file://localhost/C:/Users/Administrator/Music/iTunes/iTunes%20Media/Music/Why_/Alopecia/05%20Song%20Of%20The%20Sad%20Assasin.mp3","Song Of The Sad Assasin","5C488D82E1032C81",1,3486565098,"2014-06-25T22:18:18Z",44100,8425885,252891,36373,5,"File",2008,,,,,,,,,,,,,,,,
"Alopecia","Why?",254,"2013-12-19T01:39:19Z","2010-09-22T13:06:13Z",5,"Hip-Hop","MPEG audio file",1,"file://localhost/C:/Users/Administrator/Music/iTunes/iTunes%20Media/Music/Why_/Alopecia/06%20Gnashville%201.mp3","Gnashville","73012DC2E400373E",1,3486565327,"2014-06-25T22:22:07Z",44100,7292317,228754,36375,6,"File",2008,,,,,,,,,,,,,,,,
"Alopecia","Why?",256,"2013-12-19T01:39:20Z","2008-03-16T22:35:24Z",5,"Alternative","Purchased AAC audio file",1,"file://localhost/C:/Users/Administrator/Music/iTunes/iTunes%20Media/Music/Why_/Alopecia/06%20Gnashville.m4a","Gnashville","2A624C3F17092F59",1,3486565556,"2014-06-25T22:25:56Z",44100,7924516,228706,36377,6,"File",2008,"Why?",,,,,,16,1,1,1,true,"2008-03-11T07:00:00Z",,,,
"Dear Science","TV On The Radio",192,"2013-12-19T01:37:52Z","2008-12-15T06:23:26Z",5,"Indie Rock","MPEG audio file",1,"file://localhost/C:/Users/Administrator/Music/iTunes/iTunes%20Media/Music/TV%20On%20The%20Radio/Dear%20Science/10%20DLZ.mp3","DLZ","A5BA1F866D8E489E",6,3486622823,"2014-06-26T14:20:23Z",44100,5799744,228780,34491,10,"File",2008,,,,"Fuck the RIAA",,,,1,,,,,,,,
"Pig Lib","Stephen Malkmus & The Jicks",128,"2013-12-19T01:34:01Z","2011-04-26T00:17:54Z",5,"Alternative","AAC audio file",1,"file://localhost/C:/Users/Administrator/Music/iTunes/iTunes%20Media/Music/Stephen%20Malkmus%20&%20The%20Jicks/Pig%20Lib/11%20Us.m4a","Us","BFB62EDDFCBE264D",8,3486625596,"2014-06-26T15:06:36Z",44100,4137796,256493,28169,11,"File",2003,,,,,"Stephen Malkmus",,11,,1,1,,,,,,
"Crooks & Lovers","Mount Kimbie",179,"2013-12-19T01:19:38Z","2012-09-20T12:47:24Z",5,"Dubstep","MPEG audio file",1,"file://localhost/C:/Users/Administrator/Music/iTunes/iTunes%20Media/Music/Mount%20Kimbie/Crooks%20&%20Lovers/01%20Tunnelvision.mp3","Tunnelvision","2F9CEA4D175E765D",5,3486625706,"2014-06-26T15:08:26Z",44100,2469711,110158,19827,1,"File",2010,,,,,,,11,,,,,,,,,
,,160,"2014-06-26T15:36:04Z","2014-06-26T15:35:48Z",5,,"MPEG audio file",1,"file://localhost/C:/Users/Administrator/Music/iTunes/iTunes%20Media/Music/Unknown%20Artist/Unknown%20Album/I'm%20Free_TUSD.mp3","I'm Free_TUSD","0D119922D0B30910",1,3486627533,"2014-06-26T15:38:53Z",44100,3348292,167209,40863,,"File",,,,,,,,,,,,,,,,,
"Illinois","Sufjan Stevens",128,"2013-12-19T01:34:09Z","2007-08-11T04:08:46Z",5,"Folk","AAC audio file",1,"file://localhost/C:/Users/Administrator/Music/iTunes/iTunes%20Media/Music/Sufjan%20Stevens/Illinois/05%20Jacksonville.m4a","Jacksonville","4B63010946103D69",5,3486713020,"2014-06-27T15:23:40Z",44100,5264567,324752,28403,5,"File",2005,,,,,,,23,,,,,,,,,
"The Avalanche","Sufjan Stevens",160,"2013-12-19T01:34:23Z","2007-08-11T04:08:56Z",5,"Alternative & Punk","MPEG audio file",1,"file://localhost/C:/Users/Administrator/Music/iTunes/iTunes%20Media/Music/Sufjan%20Stevens/The%20Avalanche/02%20Dear%20Mr.%20Supercomputer.mp3","Dear Mr. Supercomputer","D318CD1F601149FF",4,3486713366,"2014-06-27T15:29:26Z",44100,5210026,260388,28829,2,"File",2006,,,"Avalanche",,"Sufjan Stevens",,21,,1,1,,,,,,
"The Avalanche","Sufjan Stevens",160,"2013-12-19T01:34:23Z","2007-08-11T04:08:56Z",5,"Alternative & Punk","MPEG audio file",1,"file://localhost/C:/Users/Administrator/Music/iTunes/iTunes%20Media/Music/Sufjan%20Stevens/The%20Avalanche/03%20Adlai%20Stevenson.mp3","Adlai Stevenson","D133F82FE130F0D3",10,3486713967,"2014-06-27T15:39:27Z",44100,3084697,154122,28831,3,"File",2006,,,"Avalanche",,"Sufjan Stevens",,21,,1,1,,,,,,
"The Avalanche","Sufjan Stevens",160,"2013-12-19T01:34:23Z","2007-08-11T04:08:56Z",5,"Alternative & Punk","MPEG audio file",1,"file://localhost/C:/Users/Administrator/Music/iTunes/iTunes%20Media/Music/Sufjan%20Stevens/The%20Avalanche/04%20The%20Vivian%20Girls%20Are%20Visited%20In%20T.mp3","The Vivian Girls Are Visited In The Night By Saint Dargarius And His Squadron Of Benevolent Butterflies","2E58C381D718DF69",7,3486714077,"2014-06-27T15:41:17Z",44100,2199234,109844,28833,4,"File",2006,,,"Avalanche",,"Sufjan Stevens","Vivian Girls Are Visited In The Night By Saint Dargarius And His Squadron Of Benevolent Butterflies",21,,1,1,,,,,,
"The Avalanche","Sufjan Stevens",160,"2013-12-19T01:34:23Z","2007-08-11T04:08:56Z",5,"Alternative & Punk","MPEG audio file",1,"file://localhost/C:/Users/Administrator/Music/iTunes/iTunes%20Media/Music/Sufjan%20Stevens/The%20Avalanche/05%20Chicago%20%5BAcoustic%5D.mp3","Chicago [Acoustic]","77B4B09C1159061E",4,3486714358,"2014-06-27T15:45:58Z",44100,5619100,280842,28835,5,"File",2006,,,"Avalanche",,"Sufjan Stevens",,21,,1,1,,,,,,
"The Avalanche","Sufjan Stevens",160,"2013-12-19T01:34:23Z","2007-08-11T04:08:56Z",5,"Alternative & Punk","MPEG audio file",1,"file://localhost/C:/Users/Administrator/Music/iTunes/iTunes%20Media/Music/Sufjan%20Stevens/The%20Avalanche/06%20The%20Henney%20Buggy%20Band.mp3","The Henney Buggy Band","14CDB53443008C7A",8,3486714554,"2014-06-27T15:49:14Z",44100,3938907,196832,28837,6,"File",2006,,,"Avalanche",,"Sufjan Stevens","Henney Buggy Band",21,,1,1,,,,,,
"The Avalanche","Sufjan Stevens",160,"2013-12-19T01:34:24Z","2007-08-11T04:08:56Z",5,"Alternative & Punk","MPEG audio file",1,"file://localhost/C:/Users/Administrator/Music/iTunes/iTunes%20Media/Music/Sufjan%20Stevens/The%20Avalanche/07%20Saul%20Bellow.mp3","Saul Bellow","98B046349014DCCA",6,3486714728,"2014-06-27T15:52:08Z",44100,3478619,173818,28839,7,"File",2006,,,"Avalanche",,"Sufjan Stevens",,21,,1,1,,,,,,
"The Avalanche","Sufjan Stevens",160,"2013-12-19T01:34:24Z","2007-08-11T04:08:58Z",5,"Alternative & Punk","MPEG audio file",1,"file://localhost/C:/Users/Administrator/Music/iTunes/iTunes%20Media/Music/Sufjan%20Stevens/The%20Avalanche/08%20Carlyle%20Lake.mp3","Carlyle Lake","7C364DA02B1C68A4",6,3486714924,"2014-06-27T15:55:24Z",44100,3917478,195761,28841,8,"File",2006,,,"Avalanche",,"Sufjan Stevens",,21,,1,1,,,,,,
"The Avalanche","Sufjan Stevens",160,"2013-12-19T01:34:24Z","2007-08-11T04:08:58Z",5,"Alternative & Punk","MPEG audio file",1,"file://localhost/C:/Users/Administrator/Music/iTunes/iTunes%20Media/Music/Sufjan%20Stevens/The%20Avalanche/09%20Springfiel,%20Or%20Bobby%20Got%20A%20Shadfl.mp3","Springfiel, Or Bobby Got A Shadfly Caught In His Hair","AB4D74A20F2E3526",6,3486716188,"2014-06-27T16:16:28Z",44100,5156245,257697,28843,9,"File",2006,,,"Avalanche",,"Sufjan Stevens",,21,,1,1,,,,,,
"The Avalanche","Sufjan Stevens",160,"2013-12-19T01:34:24Z","2007-08-11T04:08:58Z",5,"Alternative & Punk","MPEG audio file",1,"file://localhost/C:/Users/Administrator/Music/iTunes/iTunes%20Media/Music/Sufjan%20Stevens/The%20Avalanche/10%20The%20Mistress%20Witch%20From%20McClure%20(.mp3","The Mistress Witch From McClure ( Or The Mind That Knows Itself )","E39732C0542E2B4F",5,3486716392,"2014-06-27T16:19:52Z",44100,4089417,204355,28845,10,"File",2006,,,"Avalanche",,"Sufjan Stevens","Mistress Witch From McClure ( Or The Mind That Knows Itself )",21,,1,1,,,,,,
"The Avalanche","Sufjan Stevens",160,"2013-12-19T01:34:24Z","2007-08-11T04:08:58Z",5,"Alternative & Punk","MPEG audio file",1,"file://localhost/C:/Users/Administrator/Music/iTunes/iTunes%20Media/Music/Sufjan%20Stevens/The%20Avalanche/11%20Kaskaskia%20River.mp3","Kaskaskia River","49A4DB6B1BD825A4",3,3486716527,"2014-06-27T16:22:07Z",44100,2703833,135079,28847,11,"File",2006,,,"Avalanche",,"Sufjan Stevens",,21,,1,1,,,,,,
"The Avalanche","Sufjan Stevens",160,"2013-12-19T01:34:24Z","2007-08-11T04:08:58Z",5,"Alternative & Punk","MPEG audio file",1,"file://localhost/C:/Users/Administrator/Music/iTunes/iTunes%20Media/Music/Sufjan%20Stevens/The%20Avalanche/12%20Chicago%20(Adult%20Contemporary%20Easy.mp3","Chicago (Adult Contemporary Easy Listening Version)","8E858459EC9715D2",2,3486716894,"2014-06-27T16:28:14Z",44100,7342693,367020,28849,12,"File",2006,,,"Avalanche",,"Sufjan Stevens",,21,,1,1,,,,,,