"Album","Album Artist","Artist","Artwork Count","Bit Rate","Date Added","Date Modified","Disc Count","Disc Number","File Folder Count","Genre","Kind","Library Folder Count","Location","Name","Persistent ID","Play Count","Play Date","Play Date UTC","Sample Rate","Size","Sort Name","Total Time","Track Count","Track ID","Track Number","Track Type","Year","Sort Artist","Comments","Release Date"
"Synthetica","Metric","Metric",1,320,"2013-12-19T01:19:20Z","2012-09-19T23:41:50Z",1,1,5,"Alternative","MPEG audio file",1,"file://localhost/C:/Users/Administrator/Music/iTunes/iTunes%20Media/Music/Metric/Synthetica/07.%20The%20Void.mp3","The Void","E92CC70BD0BE74F1",11,3482391403,"2014-05-08T14:56:43Z",44100,7956023,"Void",197982,10,19369,6,"File",2012,,,
,,"The Knife",,320,"2013-12-19T01:38:16Z","2013-03-23T16:34:45Z",,,5,,"MPEG audio file",1,"file://localhost/C:/Users/Administrator/Music/iTunes/iTunes%20Media/Music/Unknown%20Artist/Unknown%20Album/The_Knife-A_Tooth_For_An_Eye(mp3plate.com).mp3","A Tooth For An Eye","29D7558B7638EDB9",7,3484224244,"2014-05-29T20:04:04Z",44100,14564675,"Tooth For An Eye",363859,,35049,,"File",,"Knife",,
"John Henry",,"They Might Be Giants",,128,"2013-12-19T01:37:10Z","2010-03-09T02:29:05Z",,,5,"Alternative","MPEG audio file",1,"file://localhost/C:/Users/Administrator/Music/iTunes/iTunes%20Media/Music/They%20Might%20Be%20Giants/John%20Henry/16%20Thermostat.mp3","Thermostat","36A43D1B34DD073F",9,3484307210,"2014-05-30T19:06:50Z",44100,3065856,,191477,20,33413,16,"File",1994,,,
"Live It Out",,"Metric",1,192,"2013-12-19T01:19:19Z","2008-12-14T15:56:34Z",,,5,"Indie","MPEG audio file",1,"file://localhost/C:/Users/Administrator/Music/iTunes/iTunes%20Media/Music/Metric/Live%20It%20Out/08%20The%20Police%20and%20the%20Private.mp3","The Police and the Private","BAC02E95BC898472",6,3484307434,"2014-05-30T19:10:34Z",44100,5421233,"Police and the Private",223947,,19315,8,"File",2005,,,
"Live It Out",,"Metric",1,192,"2013-12-19T01:19:19Z","2008-12-14T15:56:32Z",,,5,"Indie","MPEG audio file",1,"file://localhost/C:/Users/Administrator/Music/iTunes/iTunes%20Media/Music/Metric/Live%20It%20Out/07%20Patriarch%20on%20a%20Vespa.mp3","Patriarch on a Vespa","36863E3B6A1DB0F3",7,3482396951,"2014-05-08T16:29:11Z",44100,6595483,,272875,,19313,7,"File",2005,,,
"Synthetica","Metric","Metric",1,320,"2013-12-19T01:19:20Z","2012-09-19T23:41:40Z",1,1,5,"Alternative","MPEG audio file",1,"file://localhost/C:/Users/Administrator/Music/iTunes/iTunes%20Media/Music/Metric/Synthetica/11.%20Nothing%20But%20Time.mp3","Nothing But Time","3EF22A695310DB88",11,3484649332,"2014-06-03T18:08:52Z",44100,9812816,,244401,10,19377,10,"File",2012,,,
"Live @ Het Muziektheate, Amsterdam",,"Sufjan Stevens, Nico Muhly, Bryce Dessner",,256,"2013-12-19T01:34:26Z","2013-03-07T12:08:30Z",,,5,"Classical","MPEG audio file",1,"file://localhost/C:/Users/Administrator/Music/iTunes/iTunes%20Media/Music/Sufjan%20Stevens,%20Nico%20Muhly,%20Bryce%20Dessne/Live%20@%20Het%20Muziektheate,%20Amsterdam/16%20Jupiter.mp3","Jupiter","54A982B8E8BFFE70",7,3476779086,"2014-03-04T15:58:06Z",44100,14656523,,457691,,28903,16,"File",,,,
"Unmap","Volcano Choir","Volcano Choir",1,256,"2013-12-19T01:39:01Z","2013-02-17T18:21:57Z",1,1,5,"Rock","MPEG audio file",1,"file://localhost/C:/Users/Administrator/Music/iTunes/iTunes%20Media/Music/Volcano%20Choir/Unmap/03%20Island,%20IS.mp3","Island, IS","17F5BF6D0111BA5B",4,3476779334,"2014-03-04T16:02:14Z",44100,8072142,,248868,9,35909,3,"File",2009,,"Amazon.com Song ID: 212863286",
"Holy Fire",,"Foals",,320,"2013-12-19T01:16:17Z","2013-02-13T21:36:33Z",,,5,"Indie","MPEG audio file",1,"file://localhost/C:/Users/Administrator/Music/iTunes/iTunes%20Media/Music/Foals/Holy%20Fire/02-foals-inhaler.mp3","Inhaler","209A7FD019A1AC7F",8,3484305853,"2014-05-30T18:44:13Z",48000,11702683,,292560,,13421,2,"File",,,,"2013-01-01T12:00:00Z"
"I Love It - Single",,"Icona Pop",,256,"2013-12-19T01:17:23Z","2013-03-23T16:38:30Z",,,5,"Pop","MPEG audio file",1,"file://localhost/C:/Users/Administrator/Music/iTunes/iTunes%20Media/Music/Icona%20Pop/I%20Love%20It%20-%20Single/Icona-Pop-I-Love-It.mp3","I Love It","C06F5840CF3EE799",6,3485282612,"2014-06-11T02:03:32Z",44100,5181169,,161906,,16009,1,"File",2012,,"OHMYROCK.net",
"Single",,"ON AN ON",1,128,"2013-12-19T01:28:39Z","2013-03-25T01:30:46Z",,,5,,"MPEG audio file",1,"file://localhost/C:/Users/Administrator/Music/iTunes/iTunes%20Media/Music/On%20An%20On/Single/ON%20AN%20ON%20-%2001%20-%20The%20Hunter.mp3","The Hunter","07E69E4FF41B4CD3",9,3485323204,"2014-06-11T13:20:04Z",44100,4052604,"Hunter",197511,,21835,1,"File",,,,
"Iconic EP",,"Icona Pop",,256,"2013-12-19T01:17:23Z","2013-03-23T16:36:06Z",,,5,"Pop","MPEG audio file",1,"file://localhost/C:/Users/Administrator/Music/iTunes/iTunes%20Media/Music/Icona%20Pop/Iconic%20EP/Good%20For%20You%20OHMYROCK.NET.mp3","Good For You","5E212E8D0A7AB24B",18,3485283018,"2014-06-11T02:10:18Z",44100,6659081,,208091,,16011,3,"File",2012,,"OHMYROCK.NET",
"ADL Sessions",,"Sufjan Stevens",,128,"2013-12-19T01:38:12Z","2013-03-25T00:31:13Z",,,5,,"MPEG audio file",1,"file://localhost/C:/Users/Administrator/Music/iTunes/iTunes%20Media/Music/Unknown%20Artist/Unknown%20Album/8LMsUotxcCbO.128.mp3","Give a Little Love","C3B4F3728F8B6079",32,3485327203,"2014-06-11T14:26:43Z",44100,4541412,,283193,,34917,,"File",,,,
,"On An On","On An On",,320,"2013-12-19T01:28:39Z","2013-03-25T01:16:05Z",,,5,,"MPEG audio file",1,"file://localhost/C:/Users/Administrator/Music/iTunes/iTunes%20Media/Music/On%20An%20On/Unknown%20Album/Ghosts.mp3","Ghosts","85D1B872605A4592",7,3485327509,"2014-06-11T14:31:49Z",44100,12289033,,307200,,21837,,"File",,,,