"Artist","Bit Rate","Date Added","Date Modified","File Folder Count","Genre","Kind","Library Folder Count","Location","Name","Persistent ID","Sample Rate","Size","Total Time","Track ID","Track Type","Album","Artwork Count","Play Count","Play Date","Play Date UTC","Sort Name","Track Count","Track Number","Year","Composer","Disc Count","Disc Number","Sort Artist","Album Artist","Comments","Part Of Gapless Album"
"Alice Deejay",128,"2013-12-19T01:11:50Z","2013-05-19T17:02:20Z",5,"House","MPEG audio file",1,"file://localhost/C:/Users/Administrator/Music/iTunes/iTunes%20Media/Music/Alice%20Deejay/Unknown%20Album/Better%20Off%20Alone%20%20%20Alice%20Deejay%20www.dilandau.eu.mp3","Better Off Alone","523DDD8C3DADA213",44100,3608455,225515,5555,"File",,,,,,,,,,,,,,,,
"Stars",192,"2013-12-19T01:33:58Z","2009-10-20T23:16:06Z",5,"Indie Pop","MPEG audio file",1,"file://localhost/C:/Users/Administrator/Music/iTunes/iTunes%20Media/Music/Stars/Set%20Yourself%20on%20Fire/05%20The%20Big%20Fight.mp3","The Big Fight","A656642A30FE0EEF",44100,7891426,322272,28117,"File","Set Yourself on Fire",1,4,3481891263,"2014-05-02T20:01:03Z","Big Fight",13,5,2004,,,,,,,
"The Cranberries",128,"2013-12-19T01:35:33Z","2008-08-19T05:14:48Z",5,"Alternative & Punk","AAC audio file",1,"file://localhost/C:/Users/Administrator/Music/iTunes/iTunes%20Media/Music/The%20Cranberries/Everybody%20Else%20Is%20Doing%20It,%20So%20Why%20Can't/02%20Dreams.m4a","Dreams","DCE6C15152DE56B0",44100,4438763,272066,30695,"File","Everybody Else Is Doing It, So Why Can't We?",,2,3472197142,"2014-01-10T15:12:22Z",,12,2,1993,"Noel Hogan and Dolores O'Riordan",1,1,"Cranberries",,,
"The Cranberries",256,"2013-12-19T01:35:35Z","2009-12-27T06:28:40Z",5,"Alternative & Punk","AAC audio file",1,"file://localhost/C:/Users/Administrator/Music/iTunes/iTunes%20Media/Music/The%20Cranberries/No%20Need%20To%20Argue/07%20The%20Icicle%20Melts%202.m4a","The Icicle Melts","9F075A93FE32DAEC",44100,6512697,173933,30741,"File","No Need To Argue",,2,3472197316,"2014-01-10T15:15:16Z","Icicle Melts",13,7,1994,"O'Riordan",1,1,"Cranberries",,,
"Anomie Belle",160,"2013-12-19T01:12:19Z","2010-04-13T17:06:13Z",5,"Trip-Hop","MPEG audio file",1,"file://localhost/C:/Users/Administrator/Music/iTunes/iTunes%20Media/Music/Anomie%20Belle/Sleeping%20Patterns/04%20John%20Q%20Public.mp3","John Q Public","76EACAA7CC18F6A0",44100,4978677,248816,6261,"File","Sleeping Patterns",,9,3482669551,"2014-05-11T20:12:31Z",,,4,2008,,,,,"Anomie Belle","by GOGA-",
"Sixpence None The Richer      ",128,"2013-12-19T01:32:27Z","2013-05-19T17:04:24Z",5,"Other","MPEG audio file",1,"file://localhost/C:/Users/Administrator/Music/iTunes/iTunes%20Media/Music/Sixpence%20None%20The%20Richer/_%20%20%20%20%20%20%20%20%20%20%20%20%20%20%20%20%20%20%20%20%20%20%20%20%20%20%20%20_/Kiss%20me%20%20%20%20%20%20%20%20%20%20%20%20%20%20%20%20%20%20%20%20%20%20%20%20%20%20Sixpence%20None%20The%20Richer%20www.dilandau.eu.mp3","Kiss me                       ","465D96B7F07E32B6",44100,3192040,199366,27239,"File","                              ",,6,3481463648,"2014-04-27T21:14:08Z",,,,,,,,,,"                              ",
"The Cranberries",128,"2013-12-19T01:35:33Z","2008-08-19T05:17:24Z",5,"Alternative & Punk","AAC audio file",1,"file://localhost/C:/Users/Administrator/Music/iTunes/iTunes%20Media/Music/The%20Cranberries/Everybody%20Else%20Is%20Doing%20It,%20So%20Why%20Can't/07%20Linger.m4a","Linger","B90B4FE8B6E7CDDC",44100,4522822,274773,30705,"File","Everybody Else Is Doing It, So Why Can't We?",,7,3482669869,"2014-05-11T20:17:49Z",,12,7,1993,"Noel Hogan and Dolores O'Riordan",1,1,"Cranberries",,,
"The Cardigans",128,"2013-12-19T01:38:49Z","2013-05-19T17:04:39Z",5,"Other","MPEG audio file",1,"file://localhost/C:/Users/Administrator/Music/iTunes/iTunes%20Media/Music/Various%20Artists/Romeo%20and%20Juliet%20Soundtrack/nousn5-Qo6qefZiZln6ohqB5q2GlpqCMmqOcnp-msJ-gfYFkj4qMXDE$.mp3","Lovefool","B2816217AB9F6C96",44100,3182385,198635,35709,"File","Romeo and Juliet Soundtrack",,6,3481464121,"2014-04-27T21:22:01Z",,,11,2005,"Persson/Svensson",,,"Cardigans","Various Artists",,
,128,"2013-12-19T01:38:14Z","2013-05-19T17:06:12Z",5,,"MPEG audio file",1,"file://localhost/C:/Users/Administrator/Music/iTunes/iTunes%20Media/Music/Unknown%20Artist/Unknown%20Album/Morcheeba%252520-%252520Undress%252520Me%252520Now.mp3","Morcheeba%2520-%2520Undress%2520Me%2520Now","D0C981A7722DCCC7",44100,3249531,203023,34991,"File",,,7,3481464324,"2014-04-27T21:25:24Z",,,,,,,,,,,
"Dido",160,"2013-12-19T01:15:28Z","2013-05-19T17:03:42Z",5,,"MPEG audio file",1,"file://localhost/C:/Users/Administrator/Music/iTunes/iTunes%20Media/Music/Dido/No%20Angel/Dido%20-%20%5B06%5D%20-%20Thankyou.mp3","Thankyou","B06092920661FF5C",44100,4357784,218070,11865,"File","No Angel",,7,3481464542,"2014-04-27T21:29:02Z",,,6,1999,,,,,,,
"Stars",128,"2013-12-19T01:33:57Z","2009-10-20T23:16:00Z",5,"Indie Pop","AAC audio file",1,"file://localhost/C:/Users/Administrator/Music/iTunes/iTunes%20Media/Music/Stars/In%20Our%20Bedroom%20After%20the%20War/09%20Window%20Bird.m4a","Window Bird","A86936DEA66C9A43",44100,5157428,286160,28099,"File","In Our Bedroom After the War",1,8,3481464828,"2014-04-27T21:33:48Z",,13,9,2007,,,,,,,true