"Album","Album Artist","Artist","Artwork Count","Bit Rate","Composer","Date Added","Date Modified","Disc Count","Disc Number","File Folder Count","Genre","Kind","Library Folder Count","Location","Name","Persistent ID","Play Count","Play Date","Play Date UTC","Purchased","Release Date","Sample Rate","Size","Skip Count","Skip Date","Total Time","Track Count","Track ID","Track Number","Track Type","Year"
"Somethin' 'Bout Kreay","Kreayshawn","Kreayshawn",1,256,"Anthony Negrete, Michael Weiner & Natassia Zolot","2013-04-19T20:00:52Z","2012-09-14T19:53:55Z",1,1,5,"Pop","AAC audio file",1,"file://localhost/E:/Music/iTunes/iTunes%20Media/Music/Kreayshawn/Somethin'%20'Bout%20Kreay/03%20Gucci%20Gucci.m4a","Gucci Gucci","39BDB0EF323497DD",85,3469287053,"2013-12-07T22:50:53Z",true,"2012-09-14T07:00:00Z",44100,6704422,1,"2013-11-04T14:12:38Z",187840,13,34726,3,"File",2012
"Thao & Mirah",,"Thao & Mirah",1,320,,"2013-04-22T14:42:55Z","2013-04-22T14:41:49Z",,,5,"Indie","MPEG audio file",1,"file://localhost/E:/Music/iTunes/iTunes%20Media/Music/Thao%20&%20Mirah/Thao%20&%20Mirah/03%20-%20Little%20Cup.mp3","Little Cup","1F43E9FBCFE12CD2",123,3469287267,"2013-12-07T22:54:27Z",,,44100,8682931,1,"2013-10-18T22:00:22Z",214726,,34814,3,"File",2011
"Free the Universe","Major Lazer","Major Lazer",1,320,,"2013-04-22T14:38:11Z","2013-04-22T14:37:48Z",,,5,"Electronic","MPEG audio file",1,"file://localhost/E:/Music/iTunes/iTunes%20Media/Music/Major%20Lazer/Free%20the%20Universe/08%20Watch%20Out%20for%20This%20%5BBumaye%5D%20(feat%20Busy%20Signal,%20The%20Flexican%20&%20FS%20Green).mp3","Watch Out for This [Bumaye] (feat Busy Signal, The Flexican & FS Green)","092E674DCD3E10A4",72,3469287537,"2013-12-07T22:58:57Z",,,44100,10884874,2,"2013-11-18T17:58:45Z",269191,,34796,8,"File",2013