"Artist","Bit Rate","Date Added","Date Modified","File Folder Count","Genre","Kind","Library Folder Count","Location","Name","Persistent ID","Play Count","Play Date","Play Date UTC","Sample Rate","Size","Total Time","Track ID","Track Type","Album","Artwork Count","Sort Name","Track Count","Track Number","Year","Composer","Disc Count","Disc Number","Sort Artist","Album Artist","Comments","Skip Count","Skip Date","Part Of Gapless Album"
"Alice Deejay",128,"2013-05-19T17:03:47Z","2013-05-19T17:02:20Z",5,"House","MPEG audio file",1,"file://localhost/E:/Music/iTunes/iTunes%20Media/Music/Alice%20Deejay/Unknown%20Album/Better%20Off%20Alone%20%20%20Alice%20Deejay%20www.dilandau.eu.mp3","Better Off Alone","93A9F0B2D74D387C",3,3452667452,"2013-05-29T14:17:32Z",44100,3608455,225515,34968,"File",,,,,,,,,,,,,,,
"Stars",192,"2010-03-04T21:45:11Z","2009-10-20T23:16:06Z",5,"Indie Pop","MPEG audio file",1,"file://localhost/E:/Music/iTunes/iTunes%20Media/Music/Stars/Set%20Yourself%20on%20Fire/05%20The%20Big%20Fight.mp3","The Big Fight","169CF99FF41451B6",27,3465193679,"2013-10-21T13:47:59Z",44100,7891426,322272,16870,"File","Set Yourself on Fire",1,"Big Fight",13,5,2004,,,,,,,,,
"The Cranberries",128,"2010-03-04T21:45:11Z","2008-08-19T05:14:48Z",5,"Alternative & Punk","AAC audio file",1,"file://localhost/E:/Music/iTunes/iTunes%20Media/Music/The%20Cranberries/Everybody%20Else%20Is%20Doing%20It,%20So%20Why%20Can't/02%20Dreams.m4a","Dreams","FD6D2D8E63771ED9",21,3465193951,"2013-10-21T13:52:31Z",44100,4438763,272066,16914,"File","Everybody Else Is Doing It, So Why Can't We?",,,12,2,1993,"Noel Hogan and Dolores O'Riordan",1,1,"Cranberries",,,,,
"The Cranberries",256,"2010-03-04T21:44:41Z","2009-12-27T06:28:40Z",5,"Alternative & Punk","AAC audio file",1,"file://localhost/E:/Music/iTunes/iTunes%20Media/Music/The%20Cranberries/No%20Need%20To%20Argue/07%20The%20Icicle%20Melts%202.m4a","The Icicle Melts","FEBA2376A12FE8E4",11,3465194125,"2013-10-21T13:55:25Z",44100,6512697,173933,15178,"File","No Need To Argue",,"Icicle Melts",13,7,1994,"O'Riordan",1,1,"Cranberries",,,,,
"Anomie Belle",160,"2010-04-13T17:06:30Z","2010-04-13T17:06:13Z",5,"Trip-Hop","MPEG audio file",1,"file://localhost/E:/Music/iTunes/iTunes%20Media/Music/Anomie%20Belle/Sleeping%20Patterns/04%20John%20Q%20Public.mp3","John Q Public","380E61115B645617",57,3465196219,"2013-10-21T14:30:19Z",44100,4978677,248816,19722,"File","Sleeping Patterns",,,,4,2008,,,,,"Anomie Belle","by GOGA-",,,
"Sixpence None The Richer      ",128,"2013-05-19T17:04:45Z","2013-05-19T17:04:24Z",5,"Other","MPEG audio file",1,"file://localhost/E:/Music/iTunes/iTunes%20Media/Music/Sixpence%20None%20The%20Richer/_%20%20%20%20%20%20%20%20%20%20%20%20%20%20%20%20%20%20%20%20%20%20%20%20%20%20%20%20_/Kiss%20me%20%20%20%20%20%20%20%20%20%20%20%20%20%20%20%20%20%20%20%20%20%20%20%20%20%20Sixpence%20None%20The%20Richer%20www.dilandau.eu.mp3","Kiss me                       ","2A09034C8A7C1DDB",20,3465195820,"2013-10-21T14:23:40Z",44100,3192040,199366,34972,"File","                              ",,,,,,,,,,,"                              ",,,
"The Cranberries",128,"2010-03-04T21:45:11Z","2008-08-19T05:17:24Z",5,"Alternative & Punk","AAC audio file",1,"file://localhost/E:/Music/iTunes/iTunes%20Media/Music/The%20Cranberries/Everybody%20Else%20Is%20Doing%20It,%20So%20Why%20Can't/07%20Linger.m4a","Linger","6E0649090430BE87",21,3465196558,"2013-10-21T14:35:58Z",44100,4522822,274773,16924,"File","Everybody Else Is Doing It, So Why Can't We?",,,12,7,1993,"Noel Hogan and Dolores O'Riordan",1,1,"Cranberries",,,,,
"The Cardigans",128,"2013-05-19T17:04:50Z","2013-05-19T17:04:39Z",5,"Other","MPEG audio file",1,"file://localhost/E:/Music/iTunes/iTunes%20Media/Music/Various%20Artists/Romeo%20and%20Juliet%20Soundtrack/nousn5-Qo6qefZiZln6ohqB5q2GlpqCMmqOcnp-msJ-gfYFkj4qMXDE$.mp3","Lovefool","2F44DF4C127B8F22",24,3465196757,"2013-10-21T14:39:17Z",44100,3182385,198635,34974,"File","Romeo and Juliet Soundtrack",,,,11,2005,"Persson/Svensson",,,"Cardigans","Various Artists",,1,"2013-10-01T01:14:16Z",
,128,"2013-05-19T17:06:18Z","2013-05-19T17:06:12Z",5,,"MPEG audio file",1,"file://localhost/E:/Music/iTunes/iTunes%20Media/Music/Unknown%20Artist/Unknown%20Album/Morcheeba%252520-%252520Undress%252520Me%252520Now.mp3","Morcheeba%2520-%2520Undress%2520Me%2520Now","B47E67ED61B92966",33,3465196960,"2013-10-21T14:42:40Z",44100,3249531,203023,34976,"File",,,,,,,,,,,,,1,"2013-10-01T19:44:14Z",
"Dido",160,"2013-05-19T17:04:01Z","2013-05-19T17:03:42Z",5,,"MPEG audio file",1,"file://localhost/E:/Music/iTunes/iTunes%20Media/Music/Dido/No%20Angel/Dido%20-%20%5B06%5D%20-%20Thankyou.mp3","Thankyou","B7732834524F19B6",16,3465197178,"2013-10-21T14:46:18Z",44100,4357784,218070,34970,"File","No Angel",,,,6,1999,,,,,,,,,
"Stars",128,"2010-03-04T21:45:11Z","2009-10-20T23:16:00Z",5,"Indie Pop","AAC audio file",1,"file://localhost/E:/Music/iTunes/iTunes%20Media/Music/Stars/In%20Our%20Bedroom%20After%20the%20War/09%20Window%20Bird.m4a","Window Bird","0B53CD37CD44F60D",37,3465197464,"2013-10-21T14:51:04Z",44100,5157428,286160,16852,"File","In Our Bedroom After the War",1,,13,9,2007,,,,,,,1,"2013-10-21T15:40:00Z",true