"Album","Artist","Bit Rate","Comments","Date Added","Date Modified","File Folder Count","Genre","Kind","Library Folder Count","Location","Name","Persistent ID","Play Count","Play Date","Play Date UTC","Sample Rate","Size","Skip Count","Skip Date","Total Time","Track ID","Track Number","Track Type","Year","Sort Name"
"Event 2","Deltron 3030",241,"noir since '06","2013-09-26T15:24:38Z","2013-09-26T15:20:17Z",5,"Hip-Hop","MPEG audio file",1,"file://localhost/E:/Music/iTunes/iTunes%20Media/Music/Deltron%203030/Event%202/01-deltron_3030-stardate_feat._joseph_gordon_levitt-noir.mp3","Stardate feat. Joseph Gordon Levitt","AE1CDFB0F295F049",3,3467093520,"2013-11-12T13:32:00Z",44100,2516880,1,"2013-10-20T03:13:53Z",83121,36162,1,"File",2013,
"Event 2","Deltron 3030",250,"noir since '06","2013-09-26T15:24:39Z","2013-09-26T15:20:38Z",5,"Hip-Hop","MPEG audio file",1,"file://localhost/E:/Music/iTunes/iTunes%20Media/Music/Deltron%203030/Event%202/02-deltron_3030-the_return-noir.mp3","The Return","7460985BB5363E4E",13,3467093920,"2013-11-12T13:38:40Z",44100,12552509,,,400143,36164,2,"File",2013,"Return"
"Event 2","Deltron 3030",238,"noir since '06","2013-09-26T15:24:42Z","2013-09-26T15:20:38Z",5,"Hip-Hop","MPEG audio file",1,"file://localhost/E:/Music/iTunes/iTunes%20Media/Music/Deltron%203030/Event%202/03-deltron_3030-pay_the_price-noir.mp3","Pay The Price","D1ABE5B9AF74EAD0",11,3467094183,"2013-11-12T13:43:03Z",44100,7860400,1,"2013-10-06T01:08:18Z",263444,36166,3,"File",2013,
"Event 2","Deltron 3030",236,"noir since '06","2013-09-26T15:24:44Z","2013-09-26T15:20:38Z",5,"Hip-Hop","MPEG audio file",1,"file://localhost/E:/Music/iTunes/iTunes%20Media/Music/Deltron%203030/Event%202/04-deltron_3030-nobody_can_feat._aaron_bruno_of_awol_nation-noir.mp3","Nobody Can feat. Aaron Bruno of AWOL Nation","B6C5AE7123338ABC",9,3467094459,"2013-11-12T13:47:39Z",44100,8158555,1,"2013-11-12T13:23:59Z",276009,36168,4,"File",2013,
"Event 2","Deltron 3030",218,"noir since '06","2013-09-26T15:24:47Z","2013-09-26T15:20:38Z",5,"Hip-Hop","MPEG audio file",1,"file://localhost/E:/Music/iTunes/iTunes%20Media/Music/Deltron%203030/Event%202/05-deltron_3030-lawnchair_quarterback_part_1_feat._david_cross_and_amber_tamblyn-noir.mp3","Lawnchair Quarterback Part 1 feat. David Cross & Amber Tamblyn","D03C027ABD44C8EE",8,3465135743,"2013-10-20T21:42:23Z",44100,1586126,1,"2013-11-12T13:47:52Z",57861,36170,5,"File",2013,
"Event 2","Deltron 3030",272,"noir since '06","2013-09-26T15:24:49Z","2013-09-26T15:20:38Z",5,"Hip-Hop","MPEG audio file",1,"file://localhost/E:/Music/iTunes/iTunes%20Media/Music/Deltron%203030/Event%202/06-deltron_3030-melding_of_the_minds_feat._zack_de_la_rocha-noir.mp3","Melding Of The Minds feat. Zack De La Rocha","7B2EF292066C059F",6,3465135987,"2013-10-20T21:46:27Z",44100,8314195,1,"2013-10-09T14:20:02Z",244271,36172,6,"File",2013,
"Event 2","Deltron 3030",252,"noir since '06","2013-09-26T15:24:57Z","2013-09-26T15:20:38Z",5,"Hip-Hop","MPEG audio file",1,"file://localhost/E:/Music/iTunes/iTunes%20Media/Music/Deltron%203030/Event%202/07-deltron_3030-the_agony_feat._mary_elizabeth_winstead-noir.mp3","The Agony feat. Mary Elizabeth Winstead","C51CD925DE917B72",5,3465136188,"2013-10-20T21:49:48Z",44100,6369635,1,"2013-09-27T14:08:51Z",201456,36174,7,"File",2013,"Agony feat. Mary Elizabeth Winstead"
"Event 2","Deltron 3030",239,"noir since '06","2013-09-26T15:25:02Z","2013-09-26T15:20:38Z",5,"Hip-Hop","MPEG audio file",1,"file://localhost/E:/Music/iTunes/iTunes%20Media/Music/Deltron%203030/Event%202/08-deltron_3030-back_in_the_day_feat._the_lonely_island-noir.mp3","Back In The Day feat. The Lonely Island","4D375D5FC6E9994E",5,3465136277,"2013-10-20T21:51:17Z",44100,2667175,1,"2013-09-27T14:08:56Z",88816,36176,8,"File",2013,
"Event 2","Deltron 3030",274,"noir since '06","2013-09-26T15:25:05Z","2013-09-26T15:20:38Z",5,"Hip-Hop","MPEG audio file",1,"file://localhost/E:/Music/iTunes/iTunes%20Media/Music/Deltron%203030/Event%202/09-deltron_3030-talent_supercedes_feat._black_rob-noir.mp3","Talent Supercedes feat. Black Rob","64BB75A058240853",4,3465136495,"2013-10-20T21:54:55Z",44100,7485038,,,218070,36178,9,"File",2013,
"Event 2","Deltron 3030",253,"noir since '06","2013-09-26T15:24:25Z","2013-09-26T15:20:38Z",5,"Hip-Hop","MPEG audio file",1,"file://localhost/E:/Music/iTunes/iTunes%20Media/Music/Deltron%203030/Event%202/10-deltron_3030-look_across_the_sky_feat._mary_elizabeth_winstead-noir.mp3","Look Across The Sky feat. Mary Elizabeth Winstead","2EFE288487B45EFE",2,3465136776,"2013-10-20T21:59:36Z",44100,8919411,,,280816,36148,10,"File",2013,
"Event 2","Deltron 3030",214,"noir since '06","2013-09-26T15:24:27Z","2013-09-26T15:20:38Z",5,"Hip-Hop","MPEG audio file",1,"file://localhost/E:/Music/iTunes/iTunes%20Media/Music/Deltron%203030/Event%202/11-deltron_3030-the_future_of_food_feat._david_chang-noir.mp3","The Future Of Food feat. David Chang","9281EC1F6C164E28",2,3465136854,"2013-10-20T22:00:54Z",44100,2100421,2,"2013-10-11T22:35:16Z",78288,36150,11,"File",2013,"Future Of Food feat. David Chang"
"Event 2","Deltron 3030",254,"noir since '06","2013-09-26T15:24:30Z","2013-09-26T15:20:38Z",5,"Hip-Hop","MPEG audio file",1,"file://localhost/E:/Music/iTunes/iTunes%20Media/Music/Deltron%203030/Event%202/12-deltron_3030-what_is_this_loneliness_feat._damon_albarn_and_casual-noir.mp3","What Is This Loneliness feat. Damon Albarn & Casual","FBD938DD1BB5442D",2,3465137086,"2013-10-20T22:04:46Z",44100,7377220,1,"2013-10-01T20:20:51Z",231915,36152,12,"File",2013,
"Event 2","Deltron 3030",237,"noir since '06","2013-09-26T15:24:32Z","2013-09-26T15:20:38Z",5,"Hip-Hop","MPEG audio file",1,"file://localhost/E:/Music/iTunes/iTunes%20Media/Music/Deltron%203030/Event%202/13-deltron_3030-my_only_love_feat._emily_wells-noir.mp3","My Only Love feat. Emily Wells","C2805413DD9470F2",1,3463482910,"2013-10-01T18:35:10Z",44100,6825148,,,229590,36154,13,"File",2013,
"Event 2","Deltron 3030",226,"noir since '06","2013-09-26T15:24:33Z","2013-09-26T15:20:32Z",5,"Hip-Hop","MPEG audio file",1,"file://localhost/E:/Music/iTunes/iTunes%20Media/Music/Deltron%203030/Event%202/14-deltron_3030-lawnchair_quarterback_part_2_feat._david_cross_and_amber_tamblyn-noir.mp3","Lawnchair Quarterback Part 2 feat. David Cross & Amber Tamblyn","56A651A94DC8E3A4",2,3463482979,"2013-10-01T18:36:19Z",44100,1978965,,,69851,36156,14,"File",2013,
"Event 2","Deltron 3030",265,"noir since '06","2013-09-26T15:24:35Z","2013-09-26T15:20:37Z",5,"Hip-Hop","MPEG audio file",1,"file://localhost/E:/Music/iTunes/iTunes%20Media/Music/Deltron%203030/Event%202/15-deltron_3030-city_rising_from_the_ashes_feat._mike_patton-noir.mp3","City Rising From The Ashes feat. Mike Patton","265180EB56F464D6",1,3463483192,"2013-10-01T18:39:52Z",44100,7046921,1,"2013-10-18T21:47:57Z",212271,36158,15,"File",2013,
"Event 2","Deltron 3030",233,"noir since '06","2013-09-26T15:24:36Z","2013-09-26T15:20:39Z",5,"Hip-Hop","MPEG audio file",1,"file://localhost/E:/Music/iTunes/iTunes%20Media/Music/Deltron%203030/Event%202/16-deltron_3030-do_you_remember_feat._jamie_cullum-noir.mp3","Do You Remember feat. Jamie Cullum","88EB323D6A738EBA",1,3463483514,"2013-10-01T18:45:14Z",44100,9432581,,,322690,36160,16,"File",2013,