"Album","Album Artist","Artist","Artwork Count","Bit Rate","Date Added","Date Modified","File Folder Count","Genre","Kind","Library Folder Count","Location","Name","Persistent ID","Sample Rate","Size","Sort Album","Total Time","Track ID","Track Number","Track Type","Year"
"The Annie Lennox Collection CD 2","Annie Lennox","Annie Lennox",1,320,"2013-09-27T14:13:22Z","2013-09-26T15:00:22Z",5,"Pop","MPEG audio file",1,"file://localhost/E:/Music/iTunes/iTunes%20Media/Music/Annie%20Lennox/The%20Annie%20Lennox%20Collection%20CD%202/01.%20Annie%20Lennox%20-%20Into%20The%20West.mp3","Into The West","CADEA202ECAECA7C",44100,13844515,"Annie Lennox Collection CD 2",345652,36208,1,"File",2009
"The Annie Lennox Collection CD 2","Annie Lennox","Annie Lennox",1,320,"2013-09-27T14:13:23Z","2013-09-26T15:00:22Z",5,"Pop","MPEG audio file",1,"file://localhost/E:/Music/iTunes/iTunes%20Media/Music/Annie%20Lennox/The%20Annie%20Lennox%20Collection%20CD%202/02.%20Annie%20Lennox%20-%20Ladies%20Of%20The%20Canyon.mp3","Ladies Of The Canyon","E7521375C60B79B3",44100,8951265,"Annie Lennox Collection CD 2",223320,36210,2,"File",2009
"The Annie Lennox Collection CD 2","Annie Lennox","Annie Lennox",1,320,"2013-09-27T14:13:23Z","2013-09-26T15:00:22Z",5,"Pop","MPEG audio file",1,"file://localhost/E:/Music/iTunes/iTunes%20Media/Music/Annie%20Lennox/The%20Annie%20Lennox%20Collection%20CD%202/03.%20Annie%20Lennox%20-%20Hush,%20Hush,%20Hush.mp3","Hush, Hush, Hush","C9FCBE1172FDA05E",44100,11423490,"Annie Lennox Collection CD 2",285126,36212,3,"File",2009
"The Annie Lennox Collection CD 2","Annie Lennox","Annie Lennox",1,320,"2013-09-27T14:13:24Z","2013-09-26T15:00:22Z",5,"Pop","MPEG audio file",1,"file://localhost/E:/Music/iTunes/iTunes%20Media/Music/Annie%20Lennox/The%20Annie%20Lennox%20Collection%20CD%202/04.%20Annie%20Lennox%20-%20Many%20Rivers%20To%20Cross.mp3","Many Rivers To Cross","304D9F79EFAAD66B",44100,8258498,"Annie Lennox Collection CD 2",206001,36214,4,"File",2009
"The Annie Lennox Collection CD 2","Annie Lennox","Annie Lennox",1,320,"2013-09-27T14:13:24Z","2013-09-26T15:00:22Z",5,"Pop","MPEG audio file",1,"file://localhost/E:/Music/iTunes/iTunes%20Media/Music/Annie%20Lennox/The%20Annie%20Lennox%20Collection%20CD%202/05.%20Annie%20Lennox%20-%20Dream%20Angus.mp3","Dream Angus","93EC4E1551BE9AF7",44100,11750538,"Annie Lennox Collection CD 2",293302,36216,5,"File",2009
"The Annie Lennox Collection CD 2","Annie Lennox","Annie Lennox",1,320,"2013-09-27T14:13:25Z","2013-09-26T15:00:22Z",5,"Pop","MPEG audio file",1,"file://localhost/E:/Music/iTunes/iTunes%20Media/Music/Annie%20Lennox/The%20Annie%20Lennox%20Collection%20CD%202/06.%20Annie%20Lennox%20-%20Mama.mp3","Mama","BBBE1E576F30CC81",44100,10545764,"Annie Lennox Collection CD 2",263183,36218,6,"File",2009
"The Annie Lennox Collection CD 2","Annie Lennox","Annie Lennox",1,320,"2013-09-27T14:13:25Z","2013-09-26T15:00:22Z",5,"Pop","MPEG audio file",1,"file://localhost/E:/Music/iTunes/iTunes%20Media/Music/Annie%20Lennox/The%20Annie%20Lennox%20Collection%20CD%202/07.%20Annie%20Lennox%20-%20Everybody%20Hurts%20(+%20Alicia%20Keys)%20(live).mp3","Everybody Hurts (+ Alicia Keys) (live)","B3629E5AE64A633E",44100,15090059,"Annie Lennox Collection CD 2",376790,36220,7,"File",2009
"The Annie Lennox Collection CD 2","Annie Lennox","Annie Lennox",1,320,"2013-09-27T14:13:25Z","2013-09-26T15:00:22Z",5,"Pop","MPEG audio file",1,"file://localhost/E:/Music/iTunes/iTunes%20Media/Music/Annie%20Lennox/The%20Annie%20Lennox%20Collection%20CD%202/08.%20Annie%20Lennox%20-%20Ev'ry%20Time%20We%20Say%20Goodbye.mp3","Ev'ry Time We Say Goodbye","B04B983A0FAA7012",44100,9552087,"Annie Lennox Collection CD 2",238341,36222,8,"File",2009