"Album","Artist","Artwork Count","Bit Rate","Composer","Date Added","Date Modified","Disc Count","Disc Number","File Folder Count","Genre","Kind","Library Folder Count","Location","Name","Persistent ID","Play Count","Play Date","Play Date UTC","Sample Rate","Size","Skip Count","Skip Date","Total Time","Track ID","Track Number","Track Type","Year","Album Artist","Track Count","Sort Album"
"You Forgot It in People","Broken Social Scene",1,256,"Broken Social Scene","2010-03-04T21:29:52Z","2007-08-11T03:51:30Z",1,1,5,"Indie Rock","MPEG audio file",1,"file://localhost/E:/Music/iTunes/iTunes%20Media/Music/Broken%20Social%20Scene/You%20Forgot%20It%20in%20People/07%20Anthems%20for%20a%20Seventeen%20Year-Old.mp3","Anthems for a Seventeen Year-Old Girl","85D6C0634AFBFABE",35,3461580777,"2013-09-09T18:12:57Z",44100,8834323,1,"2012-07-22T02:57:14Z",275748,5930,7,"File",2002,,,
"Lucifer","Peaking Lights",1,128,,"2012-08-03T05:24:33Z","2012-08-03T05:20:26Z",,,5,,"MPEG audio file",1,"file://localhost/E:/Music/iTunes/iTunes%20Media/Music/Peaking%20Lights/Lucifer/Peaking%20Lights%20-%20Cosmic%20-%20%5BMP3JUICES.COM%5D.mp3","Cosmic Tides","4D5FF0AC056C52BD",29,3454958488,"2013-06-25T02:41:28Z",44100,6252020,,,388388,32130,4,"File",2012,"Peaking Lights",8,
"Strange Mercy","St. Vincent",,320,,"2012-08-09T02:48:08Z","2012-08-09T02:48:05Z",1,1,5,,"MPEG audio file",1,"file://localhost/E:/Music/iTunes/iTunes%20Media/Music/St.%20Vincent/Strange%20Mercy/St-Vincent_Cruel.mp3","Cruel","939AAB8D28271C54",42,3467022979,"2013-11-11T17:56:19Z",44100,8603810,,,215040,32134,2,"File",2011,,11,
"Arcade Fire EP","Arcade Fire",,128,,"2012-08-09T02:46:57Z","2012-08-09T02:46:53Z",,,5,,"MPEG audio file",1,"file://localhost/E:/Music/iTunes/iTunes%20Media/Music/Arcade%20Fire/Arcade%20Fire%20EP/03%20-%20No%20Cars%20Go.mp3","No Cars Go","0EE8151C45288FC3",20,3467023341,"2013-11-11T18:02:21Z",44100,5795840,1,"2013-11-11T18:11:11Z",362161,32132,3,"File",,,,
"The Rhumb Line","Ra Ra Riot",,205,,"2010-03-04T21:41:18Z","2009-04-10T00:31:14Z",,,5,"Easy Listening","MPEG audio file",1,"file://localhost/E:/Music/iTunes/iTunes%20Media/Music/Ra%20Ra%20Riot/The%20Rhumb%20Line/08%20Oh,%20La.mp3","Oh, La","75937B07733B81A0",63,3467024153,"2013-11-11T18:15:53Z",44100,7231562,1,"2012-08-08T16:08:49Z",281808,9280,8,"File",2008,,10,"Rhumb Line"