"Bit Rate","Date Added","Date Modified","File Folder Count","Kind","Library Folder Count","Location","Name","Persistent ID","Play Count","Play Date","Play Date UTC","Sample Rate","Size","Total Time","Track ID","Track Type","Album","Artist","Genre","Sort Name","Track Number","Year","Album Artist","Skip Count","Skip Date","Sort Artist","Artwork Count","Disc Count","Disc Number","File Creator","Purchased","Release Date","Track Count","Comments"
128,"2007-07-03T02:36:40Z","2008-02-10T00:10:45Z",4,"MPEG audio file",1,"file://localhost/Users/Laura/Music/iTunes/iTunes%20Music/Unknown%20Artist/Unknown%20Album/Beatles%20-%20Martha%20My%20Dear.mp3","Beatles - Martha My Dear","AE62572D50FFEFA1",6,3367420588,"2010-09-16T01:36:28Z",44100,2379979,148741,1017,"File",,,,,,,,,,,,,,,,,,
192,"2008-12-22T20:00:35Z","2008-12-22T20:00:10Z",4,"MPEG audio file",1,"file://localhost/Users/Laura/Music/iTunes/iTunes%20Music/Metric/Live%20It%20Out/08%20The%20Police%20And%20The%20Private.mp3","The Police And The Private","8E30D9D84B528CEE",11,3370688156,"2010-10-23T21:15:56Z",44100,5472384,227918,1772,"File","Live It Out","Metric","Indie Rock","Police And The Private",8,2005,,,,,,,,,,,,
230,"2007-11-03T15:33:08Z","2008-02-10T00:13:22Z",4,"MPEG audio file",1,"file://localhost/Users/Laura/Music/iTunes/iTunes%20Music/Various%20Artists/Indie_Rock%20Playlist_%20October%20(2007)/114%20Window%20Bird.mp3","Window Bird","CF4111822410BDEF",32,3370688431,"2010-10-23T21:20:31Z",44100,8091648,280633,1303,"File","Indie/Rock Playlist: October (2007)","Stars",,,114,2007,"Various Artists",2,"2009-06-14T12:23:02Z",,,,,,,,,
192,"2007-01-14T17:00:56Z","2008-02-10T00:10:04Z",4,"MPEG audio file",1,"file://localhost/Users/Laura/Music/iTunes/iTunes%20Music/Stars/Set%20Yourself%20on%20Fire/13%20the%20calendar%20girl.mp3","the calendar girl","E30160CADEA2BAE6",23,3370688674,"2010-10-23T21:24:34Z",44100,5945344,247640,941,"File","Set Yourself on Fire","Stars","Alternative","calendar girl",13,2004,,15,"2009-06-14T12:23:02Z",,,,,,,,,
128,"2005-07-30T23:57:51Z","2008-02-10T00:07:51Z",4,"MPEG audio file",1,"file://localhost/Users/Laura/Music/iTunes/iTunes%20Music/The%20New%20Pornographers/Downloads/Letter%20From%20an%20Occupant.mp3","Letter From an Occupant","31B43373F6B3222E",22,3381043273,"2011-02-20T17:41:13Z",44100,3616758,226037,796,"File","Downloads","The New Pornographers","Pop",,,2000,,5,"2009-12-18T13:53:05Z","New Pornographers",,,,,,,,
192,"2005-07-30T23:57:20Z","2008-02-10T00:07:49Z",4,"MPEG audio file",1,"file://localhost/Users/Laura/Music/iTunes/iTunes%20Music/New%20Pornographers/Downloads/01%20The%20Electric%20Version.mp3","The Electric Version","31B43373F6B3222B",12,3381043273,"2011-02-20T17:41:13Z",44100,4179720,173296,793,"File","Downloads","New Pornographers",,"Electric Version",1,,,,,,1,,,,,,,
192,"2008-12-22T20:00:27Z","2008-12-22T19:59:47Z",4,"MPEG audio file",1,"file://localhost/Users/Laura/Music/iTunes/iTunes%20Music/Metric/Live%20It%20Out/05%20Poster%20Of%20A%20Girl.mp3","Poster Of A Girl","8E30D9D84B528CE8",4,3370689348,"2010-10-23T21:35:48Z",44100,6930560,288705,1769,"File","Live It Out","Metric","Indie Rock",,5,2005,,,,,,,,,,,,
192,"2008-12-22T20:00:33Z","2008-12-22T20:00:05Z",4,"MPEG audio file",1,"file://localhost/Users/Laura/Music/iTunes/iTunes%20Music/Metric/Live%20It%20Out/07%20Patriarch%20On%20A%20Vespa.mp3","Patriarch On A Vespa","8E30D9D84B528CEC",5,3370689621,"2010-10-23T21:40:21Z",44100,6645888,276845,1771,"File","Live It Out","Metric","Indie Rock",,7,2005,,,,,,,,,,,,
256,"2009-11-15T17:17:54Z","2009-11-15T17:23:03Z",4,"Purchased AAC audio file",1,"file://localhost/Users/Laura/Music/iTunes/iTunes%20Music/Metric/Old%20World%20Underground,%20Where%20Are%20You%20Now_/08%20The%20List.m4a","The List","A6C898C4F5AB1059",7,3370689789,"2010-10-23T21:43:09Z",44100,6165186,172706,1856,"File","Old World Underground, Where Are You Now?","Metric","Alternative","List",8,2003,"Metric",,,,1,1,1,1752133483,true,"2003-09-02T07:00:00Z",10,
192,"2005-07-30T23:57:20Z","2008-02-10T00:07:49Z",4,"MPEG audio file",1,"file://localhost/Users/Laura/Music/iTunes/iTunes%20Music/New%20Pornographers/Downloads/04%20The%20End%20Of%20Medicine.mp3","The End Of Medicine","31B43373F6B3222A",6,3370689942,"2010-10-23T21:45:42Z",44100,3789973,157910,792,"File","Downloads","New Pornographers","AlternRock","End Of Medicine",4,2003,,,,,,,,,,,,":: ESC TEAM ::"
192,"2008-12-31T01:29:57Z","2005-12-31T07:05:14Z",4,"AAC audio file",1,"file://localhost/Users/Laura/Music/iTunes/iTunes%20Music/Bella%20Lea/Demo%20CD-R%20(2004)/01%20When%20I%20See%20You.m4a","When I See You","D7834F72FF931F15",2,3370690226,"2010-10-23T21:50:26Z",44100,6926471,288947,1784,"File","Demo CD-R (2004)","Bella Lea","Alternative & Punk",,1,2004,,,,,,1,1,,,,3,
128,"2006-11-25T15:52:08Z","2006-11-25T15:52:08Z",4,"AAC audio file",1,"file://localhost/Users/Laura/Music/iTunes/iTunes%20Music/Guided%20By%20Voices/Same%20Place%20The%20Fly%20Got%20Smashed/05%20Mammoth%20Cave.m4a","Mammoth Cave","5E6129D2B3C7510E",5,3370690358,"2010-10-23T21:52:38Z",44100,2223947,137042,877,"File","Same Place The Fly Got Smashed","Guided By Voices","Alternative & Punk",,5,2000,,,,,,,,,,,13,
250,"2007-11-03T15:33:02Z","2008-02-10T00:12:23Z",4,"MPEG audio file",1,"file://localhost/Users/Laura/Music/iTunes/iTunes%20Music/Various%20Artists/Indie_Rock%20Playlist_%20October%20(2007)/58%20Little%20Boxes.mp3","Little Boxes","CF4111822410BD7F",5,3370690403,"2010-10-23T21:53:23Z",44100,1544192,49345,1247,"File","Indie/Rock Playlist: October (2007)","Death Cab For Cutie",,,58,2007,"Various Artists",,,,,,,,,,,
128,"2006-04-14T00:16:50Z","2008-02-10T00:07:58Z",4,"MPEG audio file",1,"file://localhost/Users/Laura/Music/iTunes/iTunes%20Music/Radiohead/Unknown%20Album/Fake%20Plastic%20Trees.mp3","Fake Plastic Trees","891289C36704F5A3",18,3370690688,"2010-10-23T21:58:08Z",44100,4640763,290037,804,"File",,"Radiohead",,,,,,2,"2008-12-17T19:18:29Z",,,,,,,,,
221,"2007-11-03T15:32:40Z","2008-02-10T00:11:00Z",4,"MPEG audio file",1,"file://localhost/Users/Laura/Music/iTunes/iTunes%20Music/Various%20Artists/Indie_Rock%20Playlist_%20October%20(2007)/14%20Buttons.mp3","Buttons","CF4111822410BB81",1,3370690878,"2010-10-23T22:01:18Z",44100,5376000,193854,1081,"File","Indie/Rock Playlist: October (2007)","Sia",,,14,2007,"Various Artists",,,,,,,,,,,