"Album","Album Artist","Artist","Artwork Count","Bit Rate","Date Added","Date Modified","Disc Count","Disc Number","File Creator","File Folder Count","Genre","Kind","Library Folder Count","Location","Name","Persistent ID","Play Count","Play Date","Play Date UTC","Protected","Purchased","Release Date","Sample Rate","Size","Skip Count","Skip Date","Sort Album Artist","Sort Artist","Total Time","Track Count","Track ID","Track Number","Track Type","Year","Compilation","Disabled","Comments","Clean","Composer","Sort Album","Album Rating","Album Rating Computed","Rating","Sort Name","Sort Composer","Explicit"
"4ever - Single","The Veronicas","The Veronicas",1,128,"2007-11-09T15:00:40Z","2007-11-09T15:00:47Z",1,1,1752133483,4,"Pop","Protected AAC audio file",1,"file://localhost/Users/Laura/Music/iTunes/iTunes%20Music/The%20Veronicas/4ever%20-%20Single/01%204ever.m4p","4ever","91C79F473A9FFB6A",24,3341621165,"2009-11-21T11:06:05Z",true,true,"2005-07-05T07:00:00Z",44100,3517357,1283,"2008-07-26T18:33:55Z","Veronicas","Veronicas",211091,1,1331,1,"File",2005,,,,,,,,,,,,
"V","Vanessa Hudgens","Vanessa Hudgens",1,128,"2007-09-29T21:34:14Z","2007-09-29T21:34:22Z",1,1,1752133483,4,"Pop","Protected AAC audio file",1,"file://localhost/Users/Laura/Music/iTunes/iTunes%20Music/Vanessa%20Hudgens/V/04%20Never%20Underestimate%20a%20Girl.m4p","Never Underestimate a Girl","93D3D20E865FA095",31,3341620958,"2009-11-21T11:02:38Z",true,true,"2006-09-26T07:00:00Z",44100,3007692,1536,"2008-05-03T03:02:24Z",,,181578,12,1026,4,"File",2006,,,,,,,,,,,,
"V","Vanessa Hudgens","Vanessa Hudgens",1,128,"2007-09-29T21:43:46Z","2007-09-29T21:43:56Z",1,1,1752133483,4,"Pop","Protected AAC audio file",1,"file://localhost/Users/Laura/Music/iTunes/iTunes%20Music/Vanessa%20Hudgens/V/01%20Come%20Back%20to%20Me.m4p","Come Back to Me","93D3D20E865FB3C8",40,3343662860,"2009-12-15T02:14:20Z",true,true,"2006-09-26T07:00:00Z",44100,2801841,1859,"2008-07-26T18:33:55Z",,,168900,12,1035,1,"File",2006,,,,,,,,,,,,
"High School Musical 2 (Original Soundtrack)","Various Artists","Troy",1,128,"2007-09-29T21:36:18Z","2007-09-29T21:36:27Z",1,1,1752133483,4,"Soundtrack","Protected AAC audio file",1,"file://localhost/Users/Laura/Music/iTunes/iTunes%20Music/Compilations/High%20School%20Musical%202%20(Original%20Soundtrack)/08%20Bet%20On%20It.m4p","Bet On It","93D3D20E865FA603",31,3308415306,"2008-11-02T03:15:06Z",true,true,"2007-08-14T07:00:00Z",44100,3433475,1924,"2008-07-26T18:33:55Z",,,198343,11,1027,8,"File",2007,true,true,,,,,,,,,,
"Crank That (Soulja Boy) / Let Me Get 'Em - EP","Soulja Boy Tell 'Em","Soulja Boy Tell 'Em",1,128,"2007-11-19T22:54:07Z","2007-11-19T22:54:18Z",1,1,1752133483,4,"Hip-Hop/Rap","Protected AAC audio file",1,"file://localhost/Users/Laura/Music/iTunes/iTunes%20Music/Soulja%20Boy%20Tell%20'Em/Crank%20That%20(Soulja%20Boy)%20_%20Let%20Me%20Get%20'Em%20-%20EP/01%20Crank%20That%20(Soulja%20Boy).m4p","Crank That (Soulja Boy)","0D18B50D75F7057F",15,3370064786,"2010-10-16T16:06:26Z",true,true,"2007-08-28T07:00:00Z",44100,3704571,1544,"2008-12-17T19:18:29Z",,,224396,4,1344,1,"File",2007,,,"(Clean)",,,,,,,,,
"High School Musical 2 (Original Soundtrack)","Various Artists","Ryan & Sharpay",1,128,"2007-09-29T21:47:09Z","2007-09-29T21:47:17Z",1,1,1752133483,4,"Soundtrack","Protected AAC audio file",1,"file://localhost/Users/Laura/Music/iTunes/iTunes%20Music/Compilations/High%20School%20Musical%202%20(Original%20Soundtrack)/02%20Fabulous.m4p","Fabulous","93D3D20E865FBAC7",34,3341616547,"2009-11-21T09:49:07Z",true,true,"2007-08-14T07:00:00Z",44100,3148316,1411,"2008-07-26T18:33:55Z",,,180719,11,1040,2,"File",2007,true,,,,,,,,,,,
"Music of the Sun","Rihanna","Rihanna",1,128,"2007-11-01T23:51:16Z","2007-11-01T23:51:22Z",1,1,1752133483,4,"Pop","Protected AAC audio file",1,"file://localhost/Users/Laura/Music/iTunes/iTunes%20Music/Rihanna/Music%20of%20the%20Sun/05%20That%20La,%20La,%20La.m4p","That La, La, La","144F021D4CC0DBD9",31,3341615300,"2009-11-21T09:28:20Z",true,true,"2005-08-30T07:00:00Z",44100,3731007,1410,"2008-07-26T18:33:55Z",,,225905,13,1055,5,"File",2005,,,,true,"Brian George, Curtis Bedeau, D. Emile, Gerard Charles, Hugh Clarke, Lucien George & Paul Anthony George",,,,,,,
"Music of the Sun","Rihanna","Rihanna",1,128,"2007-09-29T21:41:55Z","2007-09-29T21:42:07Z",1,1,1752133483,4,"Pop","Protected AAC audio file",1,"file://localhost/Users/Laura/Music/iTunes/iTunes%20Music/Rihanna/Music%20of%20the%20Sun/01%20Pon%20de%20Replay.m4p","Pon de Replay","93D3D20E865FB195",33,3341615079,"2009-11-21T09:24:39Z",true,true,"2005-08-30T07:00:00Z",44100,4072108,1731,"2008-07-26T18:33:55Z",,,246989,13,1033,1,"File",2005,,,,true,"Alisha Brooks, Carl Sturken, Evan Rogers & Vada Nobles",,,,,,,
"Good Girl Gone Bad","Rihanna","Rihanna",1,128,"2007-09-29T21:40:55Z","2007-09-29T21:41:02Z",1,1,1752133483,4,"Pop","Protected AAC audio file",1,"file://localhost/Users/Laura/Music/iTunes/iTunes%20Music/Rihanna/Good%20Girl%20Gone%20Bad/12%20Good%20Girl%20Gone%20Bad.m4p","Good Girl Gone Bad","93D3D20E865FAE5B",31,3299916835,"2008-07-26T18:33:55Z",true,true,"2007-06-05T07:00:00Z",44100,3507503,1474,"2008-07-26T18:33:55Z",,,215177,12,1032,12,"File",2007,,true,,,"M. S. Eriksen & T. E. Hermansen",,,,,,,
"Good Girl Gone Bad","Rihanna","Rihanna",1,128,"2007-11-01T23:56:58Z","2007-11-01T23:57:06Z",1,1,1752133483,4,"Pop","Protected AAC audio file",1,"file://localhost/Users/Laura/Music/iTunes/iTunes%20Music/Rihanna/Good%20Girl%20Gone%20Bad/10%20Rehab.m4p","Rehab","144F021D4CC0F27D",13,3278595879,"2007-11-23T00:04:39Z",true,true,"2007-06-05T07:00:00Z",44100,4793471,11,"2007-12-08T03:10:26Z",,,294659,12,1059,10,"File",2007,,,,,,,,,,,,
"Good Girl Gone Bad","Rihanna","Rihanna",1,128,"2007-09-29T21:40:20Z","2007-09-29T21:40:30Z",1,1,1752133483,4,"Pop","Protected AAC audio file",1,"file://localhost/Users/Laura/Music/iTunes/iTunes%20Music/Rihanna/Good%20Girl%20Gone%20Bad/01%20Umbrella.m4p","Umbrella","93D3D20E865FAE58",38,3341614340,"2009-11-21T09:12:20Z",true,true,"2007-06-05T07:00:00Z",44100,4491850,1733,"2008-12-08T01:15:47Z",,,276014,12,1031,1,"File",2007,,,,,"C. Stewart & T. Nash",,,,,,,
"A Girl Like Me","Rihanna","Rihanna",1,128,"2007-10-13T20:07:10Z","2007-10-13T20:07:20Z",1,1,1752133483,4,"R&B/Soul","Protected AAC audio file",1,"file://localhost/Users/Laura/Music/iTunes/iTunes%20Music/Rihanna/A%20Girl%20Like%20Me/01%20SOS.m4p","SOS","CB9CCA1F3B58649E",36,3341613835,"2009-11-21T09:03:55Z",true,true,"2006-04-25T07:00:00Z",44100,3975169,1986,"2008-07-26T18:33:55Z",,,240952,13,1047,1,"File",2006,,,,,"Ed Cobb, Evan Kidd Bogart & Jonathan Rotem","Girl Like Me",,,,,,
"Unwritten","Natasha Bedingfield","Natasha Bedingfield",1,128,"2007-09-30T14:03:14Z","2007-09-30T14:03:24Z",1,1,1752133483,4,"Pop","Protected AAC audio file",1,"file://localhost/Users/Laura/Music/iTunes/iTunes%20Music/Natasha%20Bedingfield/Unwritten/03%20Unwritten.m4p","Unwritten","872FADEEF7C5AC84",33,3341611598,"2009-11-21T08:26:38Z",true,true,"2005-08-02T07:00:00Z",44100,4122720,1043,"2009-06-14T12:23:02Z",,,254953,14,1042,3,"File",2005,,,,,,,60,true,60,,,
"Hannah Montana 2 - Meet Miley Cyrus","Hannah Montana & Miley Cyrus","Miley Cyrus",1,128,"2007-11-01T23:55:28Z","2007-11-01T23:55:34Z",2,2,1752133483,4,"Soundtrack","Protected AAC audio file",1,"file://localhost/Users/Laura/Music/iTunes/iTunes%20Music/Hannah%20Montana%20&%20Miley%20Cyrus/Hannah%20Montana%202%20-%20Meet%20Miley%20Cyrus/2-04%20G.N.O.%20-%20Girl's%20Night%20Out.m4p","G.N.O. - Girl's Night Out","144F021D4CC0E68C",29,3341610716,"2009-11-21T08:11:56Z",true,true,"2007-06-26T07:00:00Z",44100,3552499,1796,"2008-07-26T18:33:55Z",,,215828,10,1058,4,"File",2007,,,,,,,,,,,,
"Hannah Montana 2 - Meet Miley Cyrus","Hannah Montana & Miley Cyrus","Miley Cyrus",1,128,"2007-11-01T23:55:06Z","2007-11-01T23:55:22Z",2,2,1752133483,4,"Soundtrack","Protected AAC audio file",1,"file://localhost/Users/Laura/Music/iTunes/iTunes%20Music/Hannah%20Montana%20&%20Miley%20Cyrus/Hannah%20Montana%202%20-%20Meet%20Miley%20Cyrus/2-02%20East%20Northumberland%20High.m4p","East Northumberland High","144F021D4CC0E689",43,3308586897,"2008-11-04T02:54:57Z",true,true,"2007-06-26T07:00:00Z",44100,3365010,1154,"2008-07-26T18:33:55Z",,,204241,10,1057,2,"File",2007,,true,,,,,,,,,,
"Alright, Still","Lily Allen","Lily Allen",1,256,"2007-11-18T00:51:36Z","2008-02-10T00:14:20Z",1,1,1752133483,4,"Pop","Purchased AAC audio file",1,"file://localhost/Users/Laura/Music/iTunes/iTunes%20Music/Lily%20Allen/Alright,%20Still/04%20Everything's%20Just%20Wonderful.m4a","Everything's Just Wonderful","6D29DABA9BA0C1F4",84,3341605446,"2009-11-21T06:44:06Z",,true,"2007-01-29T08:00:00Z",44100,6957804,1536,"2008-05-03T03:02:24Z",,,208583,13,1340,4,"File",2007,,,,true,,,,,,,,
"Alright, Still","Lily Allen","Lily Allen",1,256,"2007-11-19T22:50:30Z","2008-02-10T00:14:20Z",1,1,1752133483,4,"Pop","Purchased AAC audio file",1,"file://localhost/Users/Laura/Music/iTunes/iTunes%20Music/Lily%20Allen/Alright,%20Still/03%20LDN.m4a","LDN","0D18B50D75F7008A",41,3341605242,"2009-11-21T06:40:42Z",,true,"2007-01-29T08:00:00Z",44100,6383172,1802,"2009-04-24T13:40:20Z",,,190773,13,1342,3,"File",2007,,,,true,,,,,,,,
"Alright, Still","Lily Allen","Lily Allen",1,256,"2007-11-19T22:51:32Z","2008-02-10T00:14:21Z",1,1,1752133483,4,"Pop","Purchased AAC audio file",1,"file://localhost/Users/Laura/Music/iTunes/iTunes%20Music/Lily%20Allen/Alright,%20Still/01%20Smile.m4a","Smile","0D18B50D75F7008C",41,3341605056,"2009-11-21T06:37:36Z",,true,"2007-01-29T08:00:00Z",44100,6585942,1309,"2009-04-24T13:40:20Z",,,197043,13,1343,1,"File",2007,,,,true,,,,,,,,
"Breakaway","Kelly Clarkson","Kelly Clarkson",1,128,"2007-10-19T15:33:24Z","2007-10-19T15:33:33Z",1,1,1752133483,4,"Pop","Protected AAC audio file",1,"file://localhost/Users/Laura/Music/iTunes/iTunes%20Music/Kelly%20Clarkson/Breakaway/08%20Walk%20Away.m4p","Walk Away","AD8A5260533E3C80",29,3366381517,"2010-09-04T00:58:37Z",true,true,"2004-11-30T08:00:00Z",44100,3170874,1538,"2008-07-26T18:33:55Z",,,188219,12,1049,8,"File",2004,,,,,,,,,,,,
"Breakaway","Kelly Clarkson","Kelly Clarkson",1,128,"2007-10-19T15:32:40Z","2007-10-19T15:32:46Z",1,1,1752133483,4,"Pop","Protected AAC audio file",1,"file://localhost/Users/Laura/Music/iTunes/iTunes%20Music/Kelly%20Clarkson/Breakaway/03%20Behind%20These%20Hazel%20Eyes.m4p","Behind These Hazel Eyes","AD8A5260533E3C7D",30,3308232981,"2008-10-31T00:36:21Z",true,true,"2004-11-30T08:00:00Z",44100,3344712,1347,"2008-07-26T18:33:55Z",,,198923,12,1048,3,"File",2004,,true,,,,,,,,,,
"Katharine McPhee","Katharine McPhee","Katharine McPhee",1,128,"2007-11-18T18:30:03Z","2007-11-18T18:30:09Z",1,1,1752133483,4,"Pop","Protected AAC audio file",1,"file://localhost/Users/Laura/Music/iTunes/iTunes%20Music/Katharine%20McPhee/Katharine%20McPhee/02%20Over%20It.m4p","Over It","3229D7D9CB88CDC2",24,3341603298,"2009-11-21T06:08:18Z",true,true,"2007-01-30T08:00:00Z",44100,3490887,1282,"2008-07-26T18:33:55Z",,,215154,12,1341,2,"File",2007,,,,,"Billy Steinberg, Josh Alexander & Ruth Anne Cunningham",,,,,,,
"Katharine McPhee","Katharine McPhee","Katharine McPhee",1,128,"2007-11-21T14:57:36Z","2007-11-21T14:57:42Z",1,1,1752133483,4,"Pop","Protected AAC audio file",1,"file://localhost/Users/Laura/Music/iTunes/iTunes%20Music/Katharine%20McPhee/Katharine%20McPhee/01%20Love%20Story.m4p","Love Story","7052BE95ADAF59CC",28,3341603088,"2009-11-21T06:04:48Z",true,true,"2007-01-30T08:00:00Z",44100,3057932,1796,"2008-07-26T18:33:55Z",,,187987,12,1345,1,"File",2007,,,,,"Corte Ellis, Kara Dioguardi & Nate Hills",,,,,,,
"The High Road","JoJo","JoJo",1,128,"2007-11-30T23:42:32Z","2007-11-30T23:42:39Z",1,1,1752133483,4,"R&B/Soul","Protected AAC audio file",1,"file://localhost/Users/Laura/Music/iTunes/iTunes%20Music/JoJo/The%20High%20Road/03%20Too%20Little,%20Too%20Late.m4p","Too Little, Too Late","99BC0770FB4B1070",21,3341600995,"2009-11-21T05:29:55Z",true,true,"2006-10-17T07:00:00Z",44100,3681728,1796,"2008-07-26T18:33:55Z",,,222794,12,1390,3,"File",2006,,,,,"Billy Steinberg, Josh Alexander & Ruth Anne Cunningham","High Road",,,,,,
"Dignity","Hilary Duff","Hilary Duff",1,128,"2007-11-02T00:06:35Z","2007-11-02T00:08:39Z",1,1,1752133483,4,"Pop","Protected AAC audio file",1,"file://localhost/Users/Laura/Music/iTunes/iTunes%20Music/Hilary%20Duff/Dignity/05%20Gypsy%20Woman.m4p","Gypsy Woman","144F021D4CC11300",45,3341598225,"2009-11-21T04:43:45Z",true,true,"2007-04-03T07:00:00Z",44100,3186565,1796,"2008-07-26T18:33:55Z",,,194604,14,1060,5,"File",2007,,,,,,,,,,,,
"Dignity","Hilary Duff","Hilary Duff",1,128,"2007-10-19T15:59:43Z","2007-10-19T15:59:48Z",1,1,1752133483,4,"Pop","Protected AAC audio file",1,"file://localhost/Users/Laura/Music/iTunes/iTunes%20Music/Hilary%20Duff/Dignity/03%20With%20Love.m4p","With Love","57D76AA5CAB5D74E",41,3341598035,"2009-11-21T04:40:35Z",true,true,"2007-04-03T07:00:00Z",44100,2967139,1792,"2007-12-08T03:10:26Z",,,181044,14,1050,3,"File",2007,,,,,,,,,,,,
"Dignity","Hilary Duff","Hilary Duff",1,128,"2007-11-25T01:17:51Z","2007-11-25T01:17:57Z",1,1,1752133483,4,"Pop","Protected AAC audio file",1,"file://localhost/Users/Laura/Music/iTunes/iTunes%20Music/Hilary%20Duff/Dignity/02%20Dignity.m4p","Dignity","A610EA1D2C1ED584",44,3341597858,"2009-11-21T04:37:38Z",true,true,"2007-04-03T07:00:00Z",44100,3160257,1548,"2008-07-26T18:33:55Z",,,192979,14,1389,2,"File",2007,,,,,,,,,,,,
"Middle of Nowhere","Hanson","Hanson",1,128,"2007-11-24T21:54:07Z","2007-11-24T21:54:16Z",1,1,1752133483,4,"Pop","Protected AAC audio file",1,"file://localhost/Users/Laura/Music/iTunes/iTunes%20Music/Hanson/Middle%20of%20Nowhere/02%20MMMBop.m4p","MMMBop","84163B488636B04C",49,3341597163,"2009-11-21T04:26:03Z",true,true,"1997-05-06T07:00:00Z",44100,4548432,1033,"2009-06-14T12:23:02Z",,,268653,13,1383,2,"File",1997,,,,,,,,,,,,
"Hannah Montana (Songs from and Inspired By the Hit TV Series)","Hannah Montana","Hannah Montana",1,128,"2007-11-03T16:34:53Z","2007-11-03T16:35:01Z",1,1,1752133483,4,"Soundtrack","Protected AAC audio file",1,"file://localhost/Users/Laura/Music/iTunes/iTunes%20Music/Hannah%20Montana/Hannah%20Montana%20(Songs%20from%20and%20Inspired%20By%20the%20Hit%20TV%20Series)/02%20Who%20Said.m4p","Who Said","726F306CEC56A1C1",28,3341596725,"2009-11-21T04:18:45Z",true,true,"2006-10-24T07:00:00Z",44100,3261172,1539,"2008-07-26T18:33:55Z",,,195185,13,1330,2,"File",2006,,,,,,,,,,,,
"Hampsterdance the Album","Hampton the Hampster","Hampton the Hampster",1,128,"2007-12-18T02:46:29Z","2008-02-10T00:14:42Z",1,1,1752133483,4,"Children's Music","Protected AAC audio file",1,"file://localhost/Users/Laura/Music/iTunes/iTunes%20Music/Hampton%20the%20Hampster/Hampsterdance%20the%20Album/01%20The%20Hampster%20Dance%20Song.m4p","The Hampster Dance Song","01F1280F3265E850",13,3370031104,"2010-10-16T06:45:04Z",true,true,"2000-10-24T07:00:00Z",44100,3567338,1030,"2008-07-26T18:33:55Z",,,212855,14,1399,1,"File",2000,,,,,,,,,,"Hampster Dance Song",,
"The Dutchess (Bonus Tracks Version)","Fergie","Fergie",1,128,"2007-09-29T21:45:52Z","2007-09-29T21:46:03Z",1,1,1752133483,4,"Pop","Protected AAC audio file",1,"file://localhost/Users/Laura/Music/iTunes/iTunes%20Music/Fergie/The%20Dutchess%20(Bonus%20Tracks%20Version)/11%20Mary%20Jane%20Shoes.m4p","Mary Jane Shoes","93D3D20E865FB836",31,3341594361,"2009-11-21T03:39:21Z",true,true,"2006-09-19T07:00:00Z",44100,3895666,1860,"2008-07-26T18:33:55Z",,,235448,15,1038,11,"File",2006,,,,true,"Stacy Ferguson, Vincent Ford & will.i.am","Dutchess (Bonus Tracks Version)",,,,,,
"The Dutchess (Bonus Tracks Version)","Fergie","Fergie",1,128,"2007-09-29T21:46:28Z","2007-09-29T21:46:36Z",1,1,1752133483,4,"Pop","Protected AAC audio file",1,"file://localhost/Users/Laura/Music/iTunes/iTunes%20Music/Fergie/The%20Dutchess%20(Bonus%20Tracks%20Version)/10%20Big%20Girls%20Don't%20Cry%20(Personal).m4p","Big Girls Don't Cry (Personal)","93D3D20E865FB838",19,3297520651,"2008-06-29T00:57:31Z",true,true,"2006-09-19T07:00:00Z",44100,4426882,1057,"2008-07-26T18:33:55Z",,,268165,15,1039,10,"File",2006,,true,,true,"Stacy Ferguson & Toby Gad","Dutchess (Bonus Tracks Version)",,,,,,
"The Dutchess (Bonus Tracks Version)","Fergie","Fergie",1,128,"2007-10-02T23:59:08Z","2007-10-02T23:59:18Z",1,1,1752133483,4,"Pop","Protected AAC audio file",1,"file://localhost/Users/Laura/Music/iTunes/iTunes%20Music/Fergie/The%20Dutchess%20(Bonus%20Tracks%20Version)/07%20Glamorous.m4p","Glamorous","E986F2BC9A433776",41,3341594130,"2009-11-21T03:35:30Z",true,true,"2006-09-19T07:00:00Z",44100,4077456,1940,"2009-05-17T14:29:04Z",,,246640,15,1045,7,"File",2006,,,,true,"Christopher Bridges, Elvis Williams, Jamal Jones, Stacy Ferguson & will.i.am","Dutchess (Bonus Tracks Version)",,,,,,
"The Dutchess (Bonus Tracks Version)","Fergie","Fergie",1,128,"2007-09-29T21:45:24Z","2007-09-29T21:45:34Z",1,1,1752133483,4,"Pop","Protected AAC audio file",1,"file://localhost/Users/Laura/Music/iTunes/iTunes%20Music/Fergie/The%20Dutchess%20(Bonus%20Tracks%20Version)/04%20London%20Bridge.m4p","London Bridge","93D3D20E865FB834",23,3341593888,"2009-11-21T03:31:28Z",true,true,"2006-09-19T07:00:00Z",44100,3991415,1409,"2008-07-26T18:33:55Z",,,241346,15,1037,4,"File",2006,,,,true,"J. Jones, M. Hartnett, S. Ferguson & S. Garrett","Dutchess (Bonus Tracks Version)",,,,,,
"The Dutchess (Bonus Tracks Version)","Fergie","Fergie",1,128,"2007-09-29T21:44:28Z","2007-09-29T21:44:39Z",1,1,1752133483,4,"Pop","Protected AAC audio file",1,"file://localhost/Users/Laura/Music/iTunes/iTunes%20Music/Fergie/The%20Dutchess%20(Bonus%20Tracks%20Version)/01%20Fergalicious.m4p","Fergalicious","93D3D20E865FB831",37,3341593652,"2009-11-21T03:27:32Z",true,true,"2006-09-19T07:00:00Z",44100,4853046,1633,"2008-07-26T18:33:55Z",,,294404,15,1036,1,"File",2006,,true,,true,"Dania Maria Birks, Derrick Rahming, Fatima Shaheed, Juana Michelle Burns, Juanita A. Lee, Kim Nazel, Stacy Ferguson & will.i.am","Dutchess (Bonus Tracks Version)",,,,,,
"Hannah Montana (Songs from and Inspired By the Hit TV Series)","Hannah Montana","Everlife",1,128,"2007-12-08T02:01:47Z","2007-12-08T02:01:53Z",1,1,1752133483,4,"Soundtrack","Protected AAC audio file",1,"file://localhost/Users/Laura/Music/iTunes/iTunes%20Music/Hannah%20Montana/Hannah%20Montana%20(Songs%20from%20and%20Inspired%20By%20the%20Hit%20TV%20Series)/11%20Find%20Yourself%20In%20You%201.m4p","Find Yourself In You","CC8EB6090C40D88C",3,3282922752,"2008-01-12T01:59:12Z",true,true,"2006-10-24T07:00:00Z",44100,3550474,,,,,212995,13,1398,11,"File",2006,,,,,,,,,,,,
"Hannah Montana (Songs from and Inspired By the Hit TV Series)","Hannah Montana","Everlife",1,128,"2007-12-06T23:43:03Z","2007-12-06T23:43:10Z",1,1,1752133483,4,"Soundtrack","Protected AAC audio file",1,"file://localhost/Users/Laura/Music/iTunes/iTunes%20Music/Hannah%20Montana/Hannah%20Montana%20(Songs%20from%20and%20Inspired%20By%20the%20Hit%20TV%20Series)/11%20Find%20Yourself%20In%20You.m4p","Find Yourself In You","7383BAEAA66FD03D",19,3341593175,"2009-11-21T03:19:35Z",true,true,"2006-10-24T07:00:00Z",44100,3550474,1540,"2008-07-26T18:33:55Z",,,212995,13,1396,11,"File",2006,,,,,,,,,,,,
"Everlife","Everlife","Everlife",1,128,"2007-12-03T00:36:30Z","2007-12-03T00:36:43Z",1,1,1752133483,4,"Pop","Protected AAC audio file",1,"file://localhost/Users/Laura/Music/iTunes/iTunes%20Music/Everlife/Everlife/12%20Go%20Figure.m4p","Go Figure","FF79B4E247761BBE",25,3341592967,"2009-11-21T03:16:07Z",true,true,"2007-02-20T08:00:00Z",44100,4101069,1544,"2008-07-26T18:33:55Z",,,248057,13,1391,12,"File",2007,,,,,,,,,,,,
"Everlife","Everlife","Everlife",1,128,"2007-12-05T01:52:02Z","2007-12-05T01:52:08Z",1,1,1752133483,4,"Pop","Protected AAC audio file",1,"file://localhost/Users/Laura/Music/iTunes/iTunes%20Music/Everlife/Everlife/03%20I%20Could%20Get%20Used%20to%20This.m4p","I Could Get Used to This","5C64632DD964A2E7",33,3341592724,"2009-11-21T03:12:04Z",true,true,"2007-02-20T08:00:00Z",44100,3432332,1032,"2008-07-26T18:33:55Z",,,206679,13,1395,3,"File",2007,,,,,,,,,,,,
"Everlife","Everlife","Everlife",1,128,"2007-12-08T02:01:40Z","2007-12-08T02:01:48Z",1,1,1752133483,4,"Pop","Protected AAC audio file",1,"file://localhost/Users/Laura/Music/iTunes/iTunes%20Music/Everlife/Everlife/01%20Faded.m4p","Faded","CC8EB6090C40D88A",23,3341592522,"2009-11-21T03:08:42Z",true,true,"2007-02-20T08:00:00Z",44100,3660729,1548,"2008-07-26T18:33:55Z",,,220843,13,1397,1,"File",2007,,,,,,,,,,,,
"I Don't Think About It","Emily Osment","Emily Osment",1,256,"2007-10-24T01:53:29Z","2007-10-24T01:53:54Z",1,1,1752133483,4,"Pop","Purchased AAC audio file",1,"file://localhost/Users/Laura/Music/iTunes/iTunes%20Music/Emily%20Osment/I%20Don't%20Think%20About%20It/01%20I%20Don't%20Think%20About%20It.m4a","I Don't Think About It","321C45E52710059E",35,3341592150,"2009-11-21T03:02:30Z",,true,"2007-08-21T07:00:00Z",44100,6280198,1282,"2008-07-26T18:33:55Z",,,177586,1,1052,1,"File",2007,,,,,,,,,,,,
"Monster Mash and Other Songs of Horror","Countdown Singers","Countdown Singers",1,128,"2007-11-01T23:50:02Z","2008-02-10T00:10:51Z",1,1,1752133483,4,"Holiday","Protected AAC audio file",1,"file://localhost/Users/Laura/Music/iTunes/iTunes%20Music/Countdown%20Singers/Monster%20Mash%20and%20Other%20Songs%20of%20Horror/01%20Monster%20Mash.m4p","Monster Mash","144F021D4CC0D768",35,3370064976,"2010-10-16T16:09:36Z",true,true,"2001-01-01T08:00:00Z",44100,3304519,1859,"2008-07-26T18:33:55Z",,,194488,12,1054,1,"File",2001,,,,,,,,,,,,
"Coco","Colbie Caillat","Colbie Caillat",1,128,"2007-11-23T03:11:35Z","2007-11-23T03:11:42Z",1,1,1752133483,4,"Pop","Protected AAC audio file",1,"file://localhost/Users/Laura/Music/iTunes/iTunes%20Music/Colbie%20Caillat/Coco/04%20Bubbly.m4p","Bubbly","6E4DBFAE508ED76D",14,3323400020,"2009-04-24T13:40:20Z",true,true,"2007-07-17T07:00:00Z",44100,3233083,1552,"2009-04-24T13:40:20Z",,,196230,13,1346,4,"File",2007,,,,,"Colbie Caillat & Jason Reeves",,,,,,,
"Goodies","Ciara","Ciara",1,128,"2007-09-29T21:51:00Z","2007-09-29T21:51:14Z",1,1,1752133483,4,"R&B/Soul","Protected AAC audio file",1,"file://localhost/Users/Laura/Music/iTunes/iTunes%20Music/Ciara/Goodies/02%20One,%20Two%20Step.m4p","One, Two Step","93D3D20E865FBFD6",35,3316867258,"2009-02-07T23:00:58Z",true,true,"2004-09-28T07:00:00Z",44100,3425660,1858,"2008-07-26T18:33:55Z",,,203823,13,1041,2,"File",2004,,,,,"Ciara Harris, Missy Elliott & Phalon Alexander",,,,,,,
"High School Musical 2 (Original Soundtrack)","Various Artists","Chad & Ryan",1,128,"2007-09-30T14:10:53Z","2007-09-30T14:11:00Z",1,1,1752133483,4,"Soundtrack","Protected AAC audio file",1,"file://localhost/Users/Laura/Music/iTunes/iTunes%20Music/Compilations/High%20School%20Musical%202%20(Original%20Soundtrack)/05%20I%20Don't%20Dance.m4p","I Don't Dance","872FADEEF7C5B5CA",28,3319459078,"2009-03-09T22:57:58Z",true,true,"2007-08-14T07:00:00Z",44100,3739694,1025,"2008-07-26T18:33:55Z",,,217267,11,1043,5,"File",2007,true,,,,,,,,,,,
"In the Zone","Britney Spears","Britney Spears",1,128,"2007-10-24T01:47:41Z","2007-10-24T01:47:49Z",1,1,1752133483,4,"Pop","Protected AAC audio file",1,"file://localhost/Users/Laura/Music/iTunes/iTunes%20Music/Britney%20Spears/In%20the%20Zone/06%20Toxic.m4p","Toxic","321C45E52710040D",27,3318265377,"2009-02-24T03:22:57Z",true,true,"2003-11-18T08:00:00Z",44100,3286241,1089,"2008-07-26T18:33:55Z",,,198831,13,1051,6,"File",2003,,true,,,"Cathy Dennis, Christian Karlsson, Henrik Jonback & P. Winnberg",,,,,,,
"Parallel Lines (Expanded Edition)","Blondie","Blondie",1,256,"2007-11-11T14:52:41Z","2008-02-10T00:14:07Z",1,1,1752133483,4,"Rock","Purchased AAC audio file",1,"file://localhost/Users/Laura/Music/iTunes/iTunes%20Music/Blondie/Parallel%20Lines%20(Expanded%20Edition)/01%20Hanging%20On%20the%20Telephone.m4a","Hanging On the Telephone","5A1A8D47E23BCBB5",25,3369487975,"2010-10-09T23:52:55Z",,true,"2001-08-30T07:00:00Z",44100,4697832,1541,"2008-07-26T18:33:55Z",,,142313,16,1332,1,"File",2001,,,,,,,,,,,,
"Under My Skin","Avril Lavigne","Avril Lavigne",1,128,"2007-11-02T00:35:40Z","2007-11-02T00:35:48Z",1,1,1752133483,4,"Pop","Protected AAC audio file",1,"file://localhost/Users/Laura/Music/iTunes/iTunes%20Music/Avril%20Lavigne/Under%20My%20Skin/06%20My%20Happy%20Ending.m4p","My Happy Ending","49C24548B426D0E1",40,3324570380,"2009-05-08T02:46:20Z",true,true,"2004-05-25T07:00:00Z",44100,4027434,1410,"2008-07-26T18:33:55Z",,,242438,12,1062,6,"File",2004,,,,,"Butch Walker",,,,,,,
"Let Go","Avril Lavigne","Avril Lavigne",1,128,"2007-11-02T00:37:25Z","2007-11-02T00:37:32Z",1,1,1752133483,4,"Pop","Protected AAC audio file",1,"file://localhost/Users/Laura/Music/iTunes/iTunes%20Music/Avril%20Lavigne/Let%20Go/04%20I'm%20with%20You.m4p","I'm with You","49C24548B426D544",23,3302943885,"2008-08-30T19:24:45Z",true,true,"2002-06-04T07:00:00Z",44100,3672028,1410,"2008-07-26T18:33:55Z",,,223049,13,1063,4,"File",2002,,,,,"The Matrix",,,,,,"Matrix",
"Let Go","Avril Lavigne","Avril Lavigne",1,128,"2007-09-29T21:42:42Z","2007-09-29T21:42:49Z",1,1,1752133483,4,"Pop","Protected AAC audio file",1,"file://localhost/Users/Laura/Music/iTunes/iTunes%20Music/Avril%20Lavigne/Let%20Go/01%20Losing%20Grip.m4p","Losing Grip","93D3D20E865FB2C3",30,3303312615,"2008-09-04T01:50:15Z",true,true,"2002-06-04T07:00:00Z",44100,3846541,1986,"2008-07-26T18:33:55Z",,,233800,13,1034,1,"File",2002,,,,,"Clif Magness",,,,,,,
"Girlfriend - Single","Avril Lavigne","Avril Lavigne",1,128,"2007-09-30T14:19:02Z","2007-09-30T14:19:10Z",1,1,1752133483,4,"Pop","Protected AAC audio file",1,"file://localhost/Users/Laura/Music/iTunes/iTunes%20Music/Avril%20Lavigne/Girlfriend%20-%20Single/01%20Girlfriend%20(Clean%20Version).m4p","Girlfriend (Clean Version)","872FADEEF7C5BA87",43,3313508974,"2008-12-31T02:09:34Z",true,true,"2007-02-16T08:00:00Z",44100,3536823,1282,"2008-07-26T18:33:55Z",,,216501,1,1044,1,"File",2007,,,"(Clean Version)",true,,,,,,,,
"The Best Damn Thing","Avril Lavigne","Avril Lavigne",1,128,"2007-11-13T03:32:55Z","2007-11-13T03:33:01Z",1,1,1752133483,4,"Pop","Protected AAC audio file",1,"file://localhost/Users/Laura/Music/iTunes/iTunes%20Music/Avril%20Lavigne/The%20Best%20Damn%20Thing/07%20Hot.m4p","Hot","A76EDB76180A9BAE",43,3319722310,"2009-03-13T00:05:10Z",true,true,"2007-04-17T07:00:00Z",44100,3326361,1026,"2008-07-26T18:33:55Z",,,202940,12,1334,7,"File",2007,,,,,"Avril Lavigne & Evan Taubenfeld","Best Damn Thing",,,,,,
"The Best Damn Thing","Avril Lavigne","Avril Lavigne",1,128,"2007-11-13T14:44:42Z","2007-11-13T14:44:48Z",1,1,1752133483,4,"Pop","Protected AAC audio file",1,"file://localhost/Users/Laura/Music/iTunes/iTunes%20Music/Avril%20Lavigne/The%20Best%20Damn%20Thing/02%20I%20Can%20Do%20Better.m4p","I Can Do Better","4462968C308AD235",20,3319722501,"2009-03-13T00:08:21Z",true,true,"2007-04-17T07:00:00Z",44100,3204277,1666,"2008-07-26T18:33:55Z",,,195278,12,1335,2,"File",2007,,,,,"Avril Lavigne & Lukasz Gottwald","Best Damn Thing",,,,,,true
"Into the Rush","Aly & AJ","Aly & AJ",1,128,"2007-09-29T21:38:57Z","2007-09-29T21:39:04Z",1,1,1752133483,4,"Pop","Protected AAC audio file",1,"file://localhost/Users/Laura/Music/iTunes/iTunes%20Music/Aly%20&%20AJ/Into%20the%20Rush/01%20Rush.m4p","Rush","93D3D20E865FA96A",26,3333634740,"2009-08-21T00:39:00Z",true,true,"2005-08-16T07:00:00Z",44100,3233713,1605,"2009-04-17T23:36:18Z",,,193769,14,1029,1,"File",2005,,,,,"Alyson MIchalka & Amanda Joy Michalka",,,,,,,
"Insomniatic","Aly & AJ","Aly & AJ",1,128,"2007-09-29T21:37:22Z","2007-09-29T21:37:33Z",1,1,1752133483,4,"Pop","Protected AAC audio file",1,"file://localhost/Users/Laura/Music/iTunes/iTunes%20Music/Aly%20&%20AJ/Insomniatic/01%20Potential%20Breakup%20Song.m4p","Potential Breakup Song","93D3D20E865FA667",50,3333634335,"2009-08-21T00:32:15Z",true,true,"2007-07-10T07:00:00Z",44100,3610285,1730,"2008-07-26T18:33:55Z",,,219798,12,1028,1,"File",2007,,,,,,,,,,,,
"Chemicals React - EP","Aly & AJ","Aly & AJ",1,128,"2007-09-29T21:39:45Z","2007-09-29T21:39:56Z",1,1,1752133483,4,"Pop","Protected AAC audio file",1,"file://localhost/Users/Laura/Music/iTunes/iTunes%20Music/Aly%20&%20AJ/Chemicals%20React%20-%20EP/01%20Chemicals%20React.m4p","Chemicals React","93D3D20E865FAA0A",31,3333634120,"2009-08-21T00:28:40Z",true,true,"2006-09-19T07:00:00Z",44100,2974628,1892,"2008-07-26T18:33:55Z",,,178165,5,1030,1,"File",2006,,,,,,,,,,,,
"Acoustic Hearts of Winter","Aly & AJ","Aly & AJ",1,128,"2007-11-01T23:53:08Z","2007-11-01T23:53:14Z",1,1,1752133483,4,"Holiday","Protected AAC audio file",1,"file://localhost/Users/Laura/Music/iTunes/iTunes%20Music/Aly%20&%20AJ/Acoustic%20Hearts%20of%20Winter/01%20Greatest%20Time%20of%20Year.m4p","Greatest Time of Year","144F021D4CC0E00D",29,3297918217,"2008-07-03T15:23:37Z",true,true,"2006-09-26T07:00:00Z",44100,3664732,1859,"2008-07-26T18:33:55Z",,,220518,11,1056,1,"File",2006,,true,,,,,,,,,,