"Album","Album Artist","Artist","Artwork Count","Bit Rate","Clean","Date Added","Date Modified","Disc Count","Disc Number","File Creator","File Folder Count","Genre","Kind","Library Folder Count","Location","Name","Persistent ID","Play Count","Play Date","Play Date UTC","Purchased","Release Date","Sample Rate","Size","Skip Count","Skip Date","Total Time","Track Count","Track ID","Track Number","Track Type","Year","Album Rating","Album Rating Computed","Composer","Explicit","Rating","Disabled","Sort Album","Sort Name"
"Alright, Still","Lily Allen","Lily Allen",1,256,true,"2008-01-06T18:19:26Z","2008-02-10T00:15:35Z",1,1,1752133483,4,"Pop","Purchased AAC audio file",1,"file://localhost/Users/Laura/Music/iTunes/iTunes%20Music/Lily%20Allen/Alright,%20Still/11%20Alfie.m4a","Alfie","7BAA957C5AA895BF",46,3341605799,"2009-11-21T06:49:59Z",true,"2007-01-29T08:00:00Z",44100,5558902,1024,"2008-04-16T14:55:53Z",165324,13,1458,11,"File",2007,,,,,,,,
"It's Not Me, It's You","Lily Allen","Lily Allen",1,256,,"2009-02-12T03:51:57Z","2009-02-12T03:55:58Z",1,1,1752133483,4,"Pop","Purchased AAC audio file",1,"file://localhost/Users/Laura/Music/iTunes/iTunes%20Music/Lily%20Allen/It's%20Not%20Me,%20It's%20You/06%20Back%20to%20the%20Start.m4a","Back to the Start","303FF1A8F1CEF652",23,3341606619,"2009-11-21T07:03:39Z",true,"2009-02-06T08:00:00Z",44100,8783066,,,254173,13,1794,6,"File",2009,100,true,"Greg Kurstin & Lily Allen",true,,,,
"Smile - EP","Lily Allen","Lily Allen",1,256,,"2008-12-19T21:24:29Z","2008-12-19T21:27:25Z",1,1,1752133483,4,"Pop","Purchased AAC audio file",1,"file://localhost/Users/Laura/Music/iTunes/iTunes%20Music/Lily%20Allen/Smile%20-%20EP/02%20Cheryl%20Tweedy.m4a","Cheryl Tweedy","3C8BDA21CB148E20",30,3341607232,"2009-11-21T07:13:52Z",true,"2006-09-26T07:00:00Z",44100,6535409,,,195510,,1746,2,"File",2006,80,true,,true,80,,,
"It's Not Me, It's You","Lily Allen","Lily Allen",1,256,,"2009-02-12T03:51:57Z","2009-02-12T03:58:00Z",1,1,1752133483,4,"Pop","Purchased AAC audio file",1,"file://localhost/Users/Laura/Music/iTunes/iTunes%20Music/Lily%20Allen/It's%20Not%20Me,%20It's%20You/10%20Chinese.m4a","Chinese","303FF1A8F1CEF65A",14,3341607041,"2009-11-21T07:10:41Z",true,"2009-02-06T08:00:00Z",44100,7223651,,,208213,13,1798,10,"File",2009,100,true,"Greg Kurstin & Lily Allen",true,,,,
"It's Not Me, It's You","Lily Allen","Lily Allen",1,256,,"2009-02-12T03:51:57Z","2009-02-12T03:53:57Z",1,1,1752133483,4,"Pop","Purchased AAC audio file",1,"file://localhost/Users/Laura/Music/iTunes/iTunes%20Music/Lily%20Allen/It's%20Not%20Me,%20It's%20You/01%20Everyone's%20At%20It.m4a","Everyone's At It","303FF1A8F1CEF649",3,3332402441,"2009-08-06T18:20:41Z",true,"2009-02-06T08:00:00Z",44100,9563525,,,279120,13,1790,1,"File",2009,100,true,"Greg Kurstin & Lily Allen",true,100,true,,
"Alright, Still","Lily Allen","Lily Allen",1,256,true,"2007-11-18T00:51:36Z","2008-02-10T00:14:20Z",1,1,1752133483,4,"Pop","Purchased AAC audio file",1,"file://localhost/Users/Laura/Music/iTunes/iTunes%20Music/Lily%20Allen/Alright,%20Still/04%20Everything's%20Just%20Wonderful.m4a","Everything's Just Wonderful","6D29DABA9BA0C1F4",84,3341605446,"2009-11-21T06:44:06Z",true,"2007-01-29T08:00:00Z",44100,6957804,1536,"2008-05-03T03:02:24Z",208583,13,1340,4,"File",2007,,,,,,,,
"It's Not Me, It's You","Lily Allen","Lily Allen",1,256,,"2009-02-12T03:51:57Z","2009-02-12T03:57:33Z",1,1,1752133483,4,"Pop","Purchased AAC audio file",1,"file://localhost/Users/Laura/Music/iTunes/iTunes%20Music/Lily%20Allen/It's%20Not%20Me,%20It's%20You/08%20F__k%20You.m4a","F**k You","303FF1A8F1CEF656",35,3341606838,"2009-11-21T07:07:18Z",true,"2009-02-06T08:00:00Z",44100,7708730,,,223080,13,1796,8,"File",2009,100,true,"Greg Kurstin & Lily Allen",true,,,,
"The Fear - Single","Lily Allen","Lily Allen",1,256,,"2008-12-12T22:49:33Z","2008-12-12T22:51:19Z",1,1,1752133483,4,"Pop","Purchased AAC audio file",1,"file://localhost/Users/Laura/Music/iTunes/iTunes%20Music/Lily%20Allen/The%20Fear%20-%20Single/01%20The%20Fear.m4a","The Fear","304D313907E45597",28,3329976442,"2009-07-09T16:27:22Z",true,"2008-12-09T08:00:00Z",44100,7220714,554,"2009-04-24T13:40:20Z",206840,,1745,1,"File",2008,,,"Greg Kurstin & Lily Allen",true,,true,"Fear - Single","Fear"
"It's Not Me, It's You","Lily Allen","Lily Allen",1,256,,"2009-02-12T03:51:57Z","2009-02-12T03:59:09Z",1,1,1752133483,4,"Pop","Purchased AAC audio file",1,"file://localhost/Users/Laura/Music/iTunes/iTunes%20Music/Lily%20Allen/It's%20Not%20Me,%20It's%20You/13%20The%20Fear%20(Acoustic)%20%5BBonus%20Track%5D.m4a","The Fear (Acoustic) [Bonus Track]","303FF1A8F1CEF660",1,3329975931,"2009-07-09T16:18:51Z",true,"2009-02-06T08:00:00Z",44100,7328851,,,207853,13,1801,13,"File",2009,100,true,"Greg Kurstin & Lily Allen",true,,true,,"Fear (Acoustic) [Bonus Track]"
"Alright, Still","Lily Allen","Lily Allen",1,256,true,"2008-03-23T14:47:44Z","2008-03-23T14:48:42Z",1,1,1752133483,4,"Pop","Purchased AAC audio file",1,"file://localhost/Users/Laura/Music/iTunes/iTunes%20Music/Lily%20Allen/Alright,%20Still/06%20Friday%20Night.m4a","Friday Night","26FA94DA68B950BF",16,3329989884,"2009-07-09T20:11:24Z",true,"2007-01-29T08:00:00Z",44100,6255101,1024,"2008-07-26T18:33:55Z",186803,13,1596,6,"File",2007,,,,,,true,,
"It's Not Me, It's You","Lily Allen","Lily Allen",1,256,,"2009-02-12T03:51:57Z","2009-02-12T03:58:59Z",1,1,1752133483,4,"Pop","Purchased AAC audio file",1,"file://localhost/Users/Laura/Music/iTunes/iTunes%20Music/Lily%20Allen/It's%20Not%20Me,%20It's%20You/12%20He%20Wasn't%20There.m4a","He Wasn't There","303FF1A8F1CEF65E",4,3333375421,"2009-08-18T00:37:01Z",true,"2009-02-06T08:00:00Z",44100,6005545,,,171573,13,1800,12,"File",2009,100,true,"Greg Kurstin & Lily Allen",true,,true,,
"It's Not Me, It's You","Lily Allen","Lily Allen",1,256,,"2009-02-12T03:51:57Z","2009-02-12T03:59:01Z",1,1,1752133483,4,"Pop","Purchased AAC audio file",1,"file://localhost/Users/Laura/Music/iTunes/iTunes%20Music/Lily%20Allen/It's%20Not%20Me,%20It's%20You/11%20Him.m4a","Him","303FF1A8F1CEF65C",3,3329989064,"2009-07-09T19:57:44Z",true,"2009-02-06T08:00:00Z",44100,6942638,,,197866,13,1799,11,"File",2009,100,true,"Greg Kurstin & Lily Allen",true,,true,,
"It's Not Me, It's You","Lily Allen","Lily Allen",1,256,,"2009-02-12T03:51:57Z","2009-02-12T03:55:18Z",1,1,1752133483,4,"Pop","Purchased AAC audio file",1,"file://localhost/Users/Laura/Music/iTunes/iTunes%20Music/Lily%20Allen/It's%20Not%20Me,%20It's%20You/05%20I%20Could%20Say.m4a","I Could Say","303FF1A8F1CEF650",3,3329974229,"2009-07-09T15:50:29Z",true,"2009-02-06T08:00:00Z",44100,8463522,,,244586,13,1793,5,"File",2009,100,true,"Greg Kurstin & Lily Allen",true,,true,,
"F.U.E.P. - EP","Lily Allen","Lily Allen",1,256,,"2009-12-06T22:53:37Z","2009-12-06T22:54:32Z",1,1,1752133483,4,"Pop","Purchased AAC audio file",1,"file://localhost/Users/Laura/Music/iTunes/iTunes%20Music/Lily%20Allen/F.U.E.P.%20-%20EP/03%20Kabul%20S___.m4a","Kabul S***","45652A609158F752",6,3345113772,"2009-12-31T21:16:12Z",true,"2009-03-31T07:00:00Z",44100,7822157,,,225240,4,1860,3,"File",2009,40,true,"Greg Kurstin & Lily Allen",true,,,,
"Alright, Still","Lily Allen","Lily Allen",1,256,true,"2008-02-11T00:25:34Z","2009-05-08T02:33:47Z",1,1,1752133483,4,"Pop","Purchased AAC audio file",1,"file://localhost/Users/Laura/Music/iTunes/iTunes%20Music/Lily%20Allen/Alright,%20Still/02%20Knock%20'em%20out.m4a","Knock 'em out","206EDF6CD434158C",67,3319346964,"2009-03-08T15:49:24Z",true,"2007-01-29T08:00:00Z",44100,5831851,1561,"2009-04-24T13:40:20Z",173660,13,1577,2,"File",2007,,,,,,true,,
"Alright, Still","Lily Allen","Lily Allen",1,256,true,"2007-11-19T22:50:30Z","2008-02-10T00:14:20Z",1,1,1752133483,4,"Pop","Purchased AAC audio file",1,"file://localhost/Users/Laura/Music/iTunes/iTunes%20Music/Lily%20Allen/Alright,%20Still/03%20LDN.m4a","LDN","0D18B50D75F7008A",41,3341605242,"2009-11-21T06:40:42Z",true,"2007-01-29T08:00:00Z",44100,6383172,1802,"2009-04-24T13:40:20Z",190773,13,1342,3,"File",2007,,,,,,,,
"Alright, Still","Lily Allen","Lily Allen",1,256,true,"2008-03-23T14:47:23Z","2008-03-23T14:48:42Z",1,1,1752133483,4,"Pop","Purchased AAC audio file",1,"file://localhost/Users/Laura/Music/iTunes/iTunes%20Music/Lily%20Allen/Alright,%20Still/12%20Nan%20You're%20a%20Window%20Shopper.m4a","Nan You're a Window Shopper","26FA94DA68B950BD",45,3341605965,"2009-11-21T06:52:45Z",true,"2007-01-29T08:00:00Z",44100,5685964,1024,"2008-05-03T03:02:24Z",170502,13,1595,12,"File",2007,,,,,,,,
"It's Not Me, It's You","Lily Allen","Lily Allen",1,256,,"2009-02-12T03:51:57Z","2009-02-12T03:55:44Z",1,1,1752133483,4,"Pop","Purchased AAC audio file",1,"file://localhost/Users/Laura/Music/iTunes/iTunes%20Music/Lily%20Allen/It's%20Not%20Me,%20It's%20You/07%20Never%20Gonna%20Happen.m4a","Never Gonna Happen","303FF1A8F1CEF654",1,3329974691,"2009-07-09T15:58:11Z",true,"2009-02-06T08:00:00Z",44100,7286100,,,207986,13,1795,7,"File",2009,100,true,"Greg Kurstin & Lily Allen",true,,true,,
"Alright, Still","Lily Allen","Lily Allen",1,256,true,"2008-12-19T21:25:16Z","2008-12-19T21:27:25Z",1,1,1752133483,4,"Pop","Purchased AAC audio file",1,"file://localhost/Users/Laura/Music/iTunes/iTunes%20Music/Lily%20Allen/Alright,%20Still/05%20Not%20Big.m4a","Not Big","3C8BDA21CB149315",47,3341605638,"2009-11-21T06:47:18Z",true,"2007-01-29T08:00:00Z",44100,6576602,,,196741,,1747,5,"File",2007,,,,,,,,
"It's Not Me, It's You","Lily Allen","Lily Allen",1,256,,"2009-02-12T03:51:57Z","2009-02-12T03:53:42Z",1,1,1752133483,4,"Pop","Purchased AAC audio file",1,"file://localhost/Users/Laura/Music/iTunes/iTunes%20Music/Lily%20Allen/It's%20Not%20Me,%20It's%20You/03%20Not%20Fair.m4a","Not Fair","303FF1A8F1CEF64C",16,3341606370,"2009-11-21T06:59:30Z",true,"2009-02-06T08:00:00Z",44100,7106221,,,201213,13,1791,3,"File",2009,100,true,"Greg Kurstin & Lily Allen",true,100,,,
"Alright, Still","Lily Allen","Lily Allen",1,256,true,"2007-11-19T22:51:32Z","2008-02-10T00:14:21Z",1,1,1752133483,4,"Pop","Purchased AAC audio file",1,"file://localhost/Users/Laura/Music/iTunes/iTunes%20Music/Lily%20Allen/Alright,%20Still/01%20Smile.m4a","Smile","0D18B50D75F7008C",41,3341605056,"2009-11-21T06:37:36Z",true,"2007-01-29T08:00:00Z",44100,6585942,1309,"2009-04-24T13:40:20Z",197043,13,1343,1,"File",2007,,,,,,,,
"It's Not Me, It's You","Lily Allen","Lily Allen",1,256,,"2009-02-12T03:51:57Z","2009-02-12T03:57:50Z",1,1,1752133483,4,"Pop","Purchased AAC audio file",1,"file://localhost/Users/Laura/Music/iTunes/iTunes%20Music/Lily%20Allen/It's%20Not%20Me,%20It's%20You/09%20Who'd%20Have%20Known.m4a","Who'd Have Known","303FF1A8F1CEF658",4,3332402727,"2009-08-06T18:25:27Z",true,"2009-02-06T08:00:00Z",44100,7974838,,,230986,13,1797,9,"File",2009,100,true,"Greg Kurstin & Lily Allen",true,,true,,
"F.U.E.P. - EP","Lily Allen","Lily Allen",1,256,,"2009-05-03T23:49:01Z","2009-05-03T23:49:52Z",1,1,1752133483,4,"Pop","Purchased AAC audio file",1,"file://localhost/Users/Laura/Music/iTunes/iTunes%20Music/Lily%20Allen/F.U.E.P.%20-%20EP/04%20Womanizer%20(Acoustic%20Version.m4a","Womanizer (Acoustic Version","009BC83E0150B38B",4,3341606173,"2009-11-21T06:56:13Z",true,"2009-03-31T07:00:00Z",44100,7516020,,,213360,4,1844,4,"File",2009,40,true,"Rapheal Akinyemi & Nikesha Briscoe",true,40,,,
"It's Not Me, It's You","Lily Allen","Lily Allen",1,256,,"2009-02-12T03:51:57Z","2009-02-12T03:53:24Z",1,1,1752133483,4,"Pop","Purchased AAC audio file",1,"file://localhost/Users/Laura/Music/iTunes/iTunes%20Music/Lily%20Allen/It's%20Not%20Me,%20It's%20You/04%2022.m4a","22","303FF1A8F1CEF64E",14,3329973984,"2009-07-09T15:46:24Z",true,"2009-02-06T08:00:00Z",44100,6597866,,,186306,13,1792,4,"File",2009,100,true,"Greg Kurstin & Lily Allen",true,,true,,