Title,Album,Artist,Duration (ms),Rating,Play Count,Removed,Playlist Index
"Ancient Mars","Ancient Mars","The Zolas","222447","0","19","","1"
"The Tower","Shriek","Wye Oak","246317","0","59","","2"
"Thread","Threads","Now, Now","225000","0","10","","0"
"Thread","Threads","Now, Now","225000","0","10","","0"
