Title,Album,Artist,Duration (ms),Rating,Play Count,Removed,Playlist Index
"A Drowning","How to Destroy Angels","How to Destroy Angels","423000","0","30","","9"
"A Tattered Line Of String","fistintheair.com","The Postal Service","188000","0","15","","2"
"About You","XXYYXX","XXYYXX","248000","0","16","","3"
"Angel, Please","Beta Love","Ra Ra Riot","166000","0","22","","1"
"Before Your Very Eyes...","Amok","Atoms For Peace","347791","0","10","","6"
"Contact High","Moment Bends","Architecture In Helsinki","218267","0","47","","8"
"For Once","Beta Love","Ra Ra Riot","149000","0","26","","4"
"How long?","Welcome oblivion","How To Destroy Angels","233689","0","29","","11"
"Ingenue","Amok","Atoms For Peace","271000","0","15","","5"
"Is It Too Much","Beta Love","Ra Ra Riot","159753","0","54","","10"
"O.N.E.","Odd Blood","Yeasayer","323500","5","44","","7"
"On Melancholy Hill","Plastic Beach","Gorillaz","233000","0","24","","0"
"Still Fighting It","Rockin&#39; The Suburbs","Ben Folds","265000","0","32","","12"
"Still Fighting It","Rockin&#39; The Suburbs","Ben Folds","265000","0","32","","12"
