Title,Album,Artist,Duration (ms),Rating,Play Count,Removed,Playlist Index
"Bari 3","","Moon Hooch","222000","0","3","","0"
"Bloodstyle","Half About Being A Woman","Caroline Smith","205000","5","57","","1"
"Everything That Rises","Innocents","Moby","276874","0","10","","2"
"Execution Day","Mass Romantic (Remastered)","The New Pornographers","180024","0","38","","3"
"Saturn - Vimeo","","Sufjan Stevens","107000","0","13","","5"
"The Execution of All Things","The Execution of All Things","Rilo Kiley","253422","0","5","","4"
"Walking Off Strong","Half About Being A Woman","Caroline Smith","241000","0","9","","6"
"Walking Off Strong","Half About Being A Woman","Caroline Smith","241000","0","9","","6"
