Title,Album,Artist,Duration (ms),Rating,Play Count,Removed,Playlist Index
"Bare Feast","LP4","Ratatat","158000","0","0","","27"
"Basket Ball Get Your Groove Back","Offend Maggie","Deerhoof","157000","0","2","","10"
"Bleeker Street","The Essential Simon &amp; Garfunkel - CD1","Simon &amp; Garfunkel","163707","0","0","","28"
"Bullets","Good Arrows","Tunng","359000","0","0","","39"
"Chivalry","Like The Linen","Thao Nguyen","231000","0","0","","34"
"Christmas Island","Let&#39;s Build A Roof","Lake","151000","0","1","","18"
"Crutch &amp; Cane","Inter-Be","Peter Wolf Crier","181000","0","0","","26"
"Dead Dog Song","Bedroom EP","Okkervil River","240000","0","0","","22"
"Dis-In-Motion","Fall of Spring","Lonely Drifter Karen","216000","0","1","","20"
"Find Love","Soft Spot","Clem Snide","160914","0","1","","9"
"Fish Paste","$O$","Die Antwoord","257695","0","4","","11"
"Fiya","BiRd-BrAiNs","tUnE-YaRdS","331000","0","0","","36"
"Funeral face","#3","Suburban Kids with Biblical Namres","178000","0","1","","32"
"Hustle","...And Then We Saw Land","Tunng","268000","0","1","","37"
"I Could Bring You Jewels","Graphic As A Star","Josephine Foster","135000","0","1","","17"
"I Don&#39;t Think I Like You (As Much As I Used To)","Anticomp Folkilation","Paleface ","223000","0","0","","24"
"It Doesn&#39;t Have To Be Beautiful","Yeah So","Slow Club","226000","0","0","","30"
"Kodachrome","The Essential Paul Simon","Paul Simon","213967","0","0","","25"
"Lions","BiRd-BrAiNs","tUnE-YaRdS","302000","0","1","","35"
"Lovers&#39; Carvings","Ambivalence Avenue","Bibio","235000","0","0","","6"
"Neahkahnie","Family","Le Loup","204000","0","1","","19"
"No Mas Tears","Home Style","Andrew Jackson Jihad","68000","0","5","","0"
"Recognize (Feat. Chris Rock)","Nigga Please","Ol&#39; Dirty Bastard","264150","0","0","","23"
"Rill Rill","Treats","Sleigh Bells","230000","0","5","","29"
"Rosemary Lane","The Weed Tree","Espers","279010","0","1","","14"
"Saturday Nite","Furr","Blitzen Trapper","128000","0","1","","8"
"Shadow People","Shame, Shame","Dr. Dog","253004","0","1","","13"
"Sleeping In","Fantasy Memorial","Dinosaur Feathers","364000","0","1","","12"
"Soldaty","AURORA","APPARATSCHIK","254000","0","1","","2"
"Tale In Hard Time","What We Did On Our Holidays","Fairport Convention","203778","0","1","","15"
"The Fake Headlines","Mass Romantic","The New Pornographers","166000","0","4","","21"
"The Golden Age","Fruit","The Asteroids Galaxy Tour","230371","0","1","","3"
"The Strangers","Actor","St. Vincent","244843","0","33","","31"
"The Treehouse Song","Daytrotter Session - 5/31/2009","Ane Brun","186000","0","1","","1"
"Urine Speaks Louder Than Words","Burn the Earth, Leave it Behind","Wingnut Dishwashers Union","121000","0","0","","40"
"Where Do My Bluebirds Fly","Shallow Grave","The Tallest Man On Earth","198000","0","1","","33"
"With Me Tonight","Smiley Smile","Beach Boys","140251","0","1","","5"
"Woodcat","Comments Of The Inner Chorus","Tunng","231834","0","0","","38"
"You Cried Me","Dead Zone Boys","Jookabox","159000","0","1","","16"
"Zealots Slow Down (remix)","Diverse Systems of Throb","Bassnectar","213000","0","1","","4"
"Zoopraxiphone","Hand Cranked","Bibio","233000","0","1","","7"
"Zoopraxiphone","Hand Cranked","Bibio","233000","0","1","","7"
