Title,Album,Artist,Duration (ms),Rating,Play Count,Removed,Playlist Index
"Belong","High Times","Washed Out","175000","0","39","","10"
"Bloodstyle","Half About Being A Woman","Caroline Smith","205000","5","57","","7"
"Clean The Fan","","","251000","0","22","","5"
"Frankly, Mr. Shankly","The Queen Is Dead","The Smiths","138762","0","21","","4"
"Glory","Shriek","Wye Oak","293000","0","33","","8"
"Haunted","Pocketknife","Mr Little Jeans","216000","0","53","","1"
"Kicks","LP1","FKA twigs","325130","0","114","","2"
"Never Follow Suit","Clinging to a Scheme","The Radio Dept.","249552","0","36","","9"
"Oh Sailor (feat. The Silverlake Conservatory Of Music Youth Chorale)","Pocketknife","Mr Little Jeans","247000","0","166","","0"
"Rythm of Devotion.mp3","Sisyphus","Sisyphus","363000","0","59","","6"
"The Last Huzzah! (feat. Despot, Das Racist, Danny Brown &amp; El-P) [Bonus Track]","Mr. Muthafuckin&#39; eXquire - Lost In Translation","Mr. Muthafuckin&#39; eXquire","332000","0","24","","11"
"The Last Huzzah! (feat. Despot, Das Racist, Danny Brown &amp; El-P) [Bonus Track]","Mr. Muthafuckin&#39; eXquire - Lost In Translation","Mr. Muthafuckin&#39; eXquire","332000","0","24","","11"
